{
  "v" : "1.0",
  "raaga" : "28",
  "shrutiOctave" : "S4",
  "shruti" : "G",
  "tempo" : 150,
  "swaras" : [ {
    "isTrailer" : false,
    "note" : "G",
    "duration" : "DOUBLE",
    "octave" : "BASE",
    "gamaka" : -1
  }, {
    "isTrailer" : false,
    "note" : "G",
    "duration" : "DOUBLE",
    "octave" : "BASE",
    "gamaka" : -1
  }, {
    "isTrailer" : false,
    "note" : "R",
    "duration" : "DOUBLE",
    "octave" : "BASE",
    "gamaka" : 30
  }, {
    "isTrailer" : false,
    "note" : "R",
    "duration" : "DOUBLE",
    "octave" : "BASE",
    "gamaka" : -1
  }, {
    "isTrailer" : true
  }, {
    "isTrailer" : false,
    "note" : "S",
    "duration" : "FULL",
    "octave" : "BASE",
    "gamaka" : -1
  }, {
    "isTrailer" : false,
    "note" : "S",
    "duration" : "FULL",
    "octave" : "BASE",
    "gamaka" : 9
  }, {
    "isTrailer" : false,
    "note" : "R",
    "duration" : "FULL",
    "octave" : "BASE",
    "gamaka" : -1
  }, {
    "isTrailer" : false,
    "note" : "R",
    "duration" : "FULL",
    "octave" : "BASE",
    "gamaka" : 36
  }, {
    "isTrailer" : false,
    "note" : "G",
    "duration" : "FULL",
    "octave" : "BASE",
    "gamaka" : -1
  }, {
    "isTrailer" : false,
    "note" : "G",
    "duration" : "FULL",
    "octave" : "BASE",
    "gamaka" : 36
  }, {
    "isTrailer" : false,
    "note" : "R",
    "duration" : "FULL",
    "octave" : "BASE",
    "gamaka" : -1
  }, {
    "isTrailer" : false,
    "note" : "R",
    "duration" : "FULL",
    "octave" : "BASE",
    "gamaka" : 36
  }, {
    "isTrailer" : true
  }, {
    "isTrailer" : false,
    "note" : "S",
    "duration" : "FULL",
    "octave" : "BASE",
    "gamaka" : -1
  }, {
    "isTrailer" : false,
    "note" : "R",
    "duration" : "FULL",
    "octave" : "BASE",
    "gamaka" : 8
  }, {
    "isTrailer" : false,
    "note" : "G",
    "duration" : "FULL",
    "octave" : "BASE",
    "gamaka" : -1
  }, {
    "isTrailer" : false,
    "note" : "R",
    "duration" : "FULL",
    "octave" : "BASE",
    "gamaka" : 30
  }, {
    "isTrailer" : false,
    "note" : "S",
    "duration" : "FULL",
    "octave" : "BASE",
    "gamaka" : -1
  }, {
    "isTrailer" : false,
    "note" : "R",
    "duration" : "FULL",
    "octave" : "BASE",
    "gamaka" : 8
  }, {
    "isTrailer" : false,
    "note" : "S",
    "duration" : "FULL",
    "octave" : "BASE",
    "gamaka" : -1
  }, {
    "isTrailer" : false,
    "note" : "D",
    "duration" : "FULL",
    "octave" : "DOWN1",
    "gamaka" : -1
  }, {
    "isTrailer" : true
  }, {
    "isTrailer" : false,
    "note" : "S",
    "duration" : "FULL",
    "octave" : "BASE",
    "gamaka" : -1
  }, {
    "isTrailer" : false,
    "note" : "R",
    "duration" : "FULL",
    "octave" : "BASE",
    "gamaka" : 8
  }, {
    "isTrailer" : false,
    "note" : "G",
    "duration" : "FULL",
    "octave" : "BASE",
    "gamaka" : -1
  }, {
    "isTrailer" : false,
    "note" : "P",
    "duration" : "FULL",
    "octave" : "BASE",
    "gamaka" : -1
  }, {
    "isTrailer" : false,
    "note" : "G",
    "duration" : "FULL",
    "octave" : "BASE",
    "gamaka" : -1
  }, {
    "isTrailer" : false,
    "note" : "R",
    "duration" : "FULL",
    "octave" : "BASE",
    "gamaka" : 30
  }, {
    "isTrailer" : false,
    "note" : "S",
    "duration" : "FULL",
    "octave" : "BASE",
    "gamaka" : -1
  }, {
    "isTrailer" : false,
    "note" : "R",
    "duration" : "FULL",
    "octave" : "BASE",
    "gamaka" : 1
  }, {
    "isTrailer" : true
  }, {
    "isTrailer" : true
  }, {
    "isTrailer" : false,
    "note" : "G",
    "duration" : "FULL",
    "octave" : "BASE",
    "gamaka" : -1
  }, {
    "isTrailer" : false,
    "note" : "P",
    "duration" : "FULL",
    "octave" : "BASE",
    "gamaka" : -1
  }, {
    "isTrailer" : false,
    "note" : "G",
    "duration" : "FULL",
    "octave" : "BASE",
    "gamaka" : -1
  }, {
    "isTrailer" : false,
    "note" : "G",
    "duration" : "FULL",
    "octave" : "BASE",
    "gamaka" : -1
  }, {
    "isTrailer" : false,
    "note" : "R",
    "duration" : "FULL",
    "octave" : "BASE",
    "gamaka" : -1
  }, {
    "isTrailer" : false,
    "note" : "S",
    "duration" : "FULL",
    "octave" : "BASE",
    "gamaka" : -1
  }, {
    "isTrailer" : false,
    "note" : "R",
    "duration" : "FULL",
    "octave" : "BASE",
    "gamaka" : 1
  }, {
    "isTrailer" : false,
    "note" : "G",
    "duration" : "FULL",
    "octave" : "BASE",
    "gamaka" : -1
  }, {
    "isTrailer" : true
  }, {
    "isTrailer" : false,
    "note" : "R",
    "duration" : "FULL",
    "octave" : "BASE",
    "gamaka" : 30
  }, {
    "isTrailer" : false,
    "note" : "R",
    "duration" : "FULL",
    "octave" : "BASE",
    "gamaka" : -1
  }, {
    "isTrailer" : false,
    "note" : "S",
    "duration" : "FULL",
    "octave" : "BASE",
    "gamaka" : 9
  }, {
    "isTrailer" : false,
    "note" : "D",
    "duration" : "FULL",
    "octave" : "DOWN1",
    "gamaka" : -1
  }, {
    "isTrailer" : false,
    "note" : "S",
    "duration" : "FULL",
    "octave" : "BASE",
    "gamaka" : -1
  }, {
    "isTrailer" : false,
    "note" : "R",
    "duration" : "FULL",
    "octave" : "BASE",
    "gamaka" : 1
  }, {
    "isTrailer" : false,
    "note" : "G",
    "duration" : "FULL",
    "octave" : "BASE",
    "gamaka" : -1
  }, {
    "isTrailer" : false,
    "note" : "R",
    "duration" : "FULL",
    "octave" : "BASE",
    "gamaka" : 30
  }, {
    "isTrailer" : true
  }, {
    "isTrailer" : false,
    "note" : "G",
    "duration" : "FULL",
    "octave" : "BASE",
    "gamaka" : -1
  }, {
    "isTrailer" : false,
    "note" : "P",
    "duration" : "FULL",
    "octave" : "BASE",
    "gamaka" : -1
  }, {
    "isTrailer" : false,
    "note" : "G",
    "duration" : "FULL",
    "octave" : "BASE",
    "gamaka" : -1
  }, {
    "isTrailer" : false,
    "note" : "P",
    "duration" : "FULL",
    "octave" : "BASE",
    "gamaka" : -1
  }, {
    "isTrailer" : false,
    "note" : "D",
    "duration" : "FULL",
    "octave" : "BASE",
    "gamaka" : 1
  }, {
    "isTrailer" : false,
    "note" : "P",
    "duration" : "FULL",
    "octave" : "BASE",
    "gamaka" : -1
  }, {
    "isTrailer" : false,
    "note" : "D",
    "duration" : "FULL",
    "octave" : "BASE",
    "gamaka" : -1
  }, {
    "isTrailer" : false,
    "note" : "S",
    "duration" : "FULL",
    "octave" : "UP1",
    "gamaka" : -1
  }, {
    "isTrailer" : true
  }, {
    "isTrailer" : false,
    "note" : "D",
    "duration" : "DOUBLE",
    "octave" : "BASE",
    "gamaka" : 43
  }, {
    "isTrailer" : false,
    "note" : "P",
    "duration" : "FULL",
    "octave" : "BASE",
    "gamaka" : -1
  }, {
    "isTrailer" : false,
    "note" : "G",
    "duration" : "FULL",
    "octave" : "BASE",
    "gamaka" : -1
  }, {
    "isTrailer" : false,
    "note" : "D",
    "duration" : "FULL",
    "octave" : "BASE",
    "gamaka" : 9
  }, {
    "isTrailer" : false,
    "note" : "P",
    "duration" : "FULL",
    "octave" : "BASE",
    "gamaka" : -1
  }, {
    "isTrailer" : false,
    "note" : "G",
    "duration" : "FULL",
    "octave" : "BASE",
    "gamaka" : -1
  }, {
    "isTrailer" : false,
    "note" : "R",
    "duration" : "FULL",
    "octave" : "BASE",
    "gamaka" : 30
  }, {
    "isTrailer" : true
  }, {
    "isTrailer" : true
  }, {
    "isTrailer" : false,
    "note" : "G",
    "duration" : "DOUBLE",
    "octave" : "BASE",
    "gamaka" : -1
  }, {
    "isTrailer" : false,
    "note" : "G",
    "duration" : "DOUBLE",
    "octave" : "BASE",
    "gamaka" : -1
  }, {
    "isTrailer" : false,
    "note" : "P",
    "duration" : "QUADRUPLE",
    "octave" : "BASE",
    "gamaka" : 9
  }, {
    "isTrailer" : true
  }, {
    "isTrailer" : false,
    "note" : "G",
    "duration" : "FULL",
    "octave" : "BASE",
    "gamaka" : -1
  }, {
    "isTrailer" : false,
    "note" : "G",
    "duration" : "FULL",
    "octave" : "BASE",
    "gamaka" : 36
  }, {
    "isTrailer" : false,
    "note" : "P",
    "duration" : "FULL",
    "octave" : "BASE",
    "gamaka" : -1
  }, {
    "isTrailer" : false,
    "note" : "P",
    "duration" : "FULL",
    "octave" : "BASE",
    "gamaka" : 9
  }, {
    "isTrailer" : false,
    "note" : "D",
    "duration" : "FULL",
    "octave" : "BASE",
    "gamaka" : -1
  }, {
    "isTrailer" : false,
    "note" : "D",
    "duration" : "FULL",
    "octave" : "BASE",
    "gamaka" : 36
  }, {
    "isTrailer" : false,
    "note" : "P",
    "duration" : "DOUBLE",
    "octave" : "BASE",
    "gamaka" : -1
  }, {
    "isTrailer" : true
  }, {
    "isTrailer" : false,
    "note" : "D",
    "duration" : "FULL",
    "octave" : "BASE",
    "gamaka" : -1
  }, {
    "isTrailer" : false,
    "note" : "S",
    "duration" : "FULL",
    "octave" : "UP1",
    "gamaka" : -1
  }, {
    "isTrailer" : false,
    "note" : "D",
    "duration" : "FULL",
    "octave" : "BASE",
    "gamaka" : -1
  }, {
    "isTrailer" : false,
    "note" : "D",
    "duration" : "FULL",
    "octave" : "BASE",
    "gamaka" : 36
  }, {
    "isTrailer" : false,
    "note" : "P",
    "duration" : "FULL",
    "octave" : "BASE",
    "gamaka" : -1
  }, {
    "isTrailer" : false,
    "note" : "G",
    "duration" : "FULL",
    "octave" : "BASE",
    "gamaka" : -1
  }, {
    "isTrailer" : false,
    "note" : "D",
    "duration" : "FULL",
    "octave" : "BASE",
    "gamaka" : 24
  }, {
    "isTrailer" : false,
    "note" : "P",
    "duration" : "FULL",
    "octave" : "BASE",
    "gamaka" : -1
  }, {
    "isTrailer" : true
  }, {
    "isTrailer" : false,
    "note" : "D",
    "duration" : "FULL",
    "octave" : "BASE",
    "gamaka" : -1
  }, {
    "isTrailer" : false,
    "note" : "G",
    "duration" : "FULL",
    "octave" : "BASE",
    "gamaka" : -1
  }, {
    "isTrailer" : false,
    "note" : "D",
    "duration" : "FULL",
    "octave" : "BASE",
    "gamaka" : 36
  }, {
    "isTrailer" : false,
    "note" : "P",
    "duration" : "FULL",
    "octave" : "BASE",
    "gamaka" : -1
  }, {
    "isTrailer" : false,
    "note" : "G",
    "duration" : "FULL",
    "octave" : "BASE",
    "gamaka" : -1
  }, {
    "isTrailer" : false,
    "note" : "R",
    "duration" : "FULL",
    "octave" : "BASE",
    "gamaka" : 30
  }, {
    "isTrailer" : false,
    "note" : "S",
    "duration" : "FULL",
    "octave" : "BASE",
    "gamaka" : -1
  }, {
    "isTrailer" : false,
    "note" : "R",
    "duration" : "FULL",
    "octave" : "BASE",
    "gamaka" : -1
  }, {
    "isTrailer" : true
  }, {
    "isTrailer" : true
  }, {
    "isTrailer" : false,
    "note" : "G",
    "duration" : "FULL",
    "octave" : "BASE",
    "gamaka" : -1
  }, {
    "isTrailer" : false,
    "note" : "G",
    "duration" : "FULL",
    "octave" : "BASE",
    "gamaka" : 36
  }, {
    "isTrailer" : false,
    "note" : "P",
    "duration" : "FULL",
    "octave" : "BASE",
    "gamaka" : -1
  }, {
    "isTrailer" : false,
    "note" : "P",
    "duration" : "FULL",
    "octave" : "BASE",
    "gamaka" : 9
  }, {
    "isTrailer" : false,
    "note" : "D",
    "duration" : "FULL",
    "octave" : "BASE",
    "gamaka" : -1
  }, {
    "isTrailer" : false,
    "note" : "P",
    "duration" : "FULL",
    "octave" : "BASE",
    "gamaka" : -1
  }, {
    "isTrailer" : false,
    "note" : "D",
    "duration" : "FULL",
    "octave" : "BASE",
    "gamaka" : 8
  }, {
    "isTrailer" : false,
    "note" : "S",
    "duration" : "FULL",
    "octave" : "UP1",
    "gamaka" : -1
  }, {
    "isTrailer" : true
  }, {
    "isTrailer" : false,
    "note" : "D",
    "duration" : "FULL",
    "octave" : "BASE",
    "gamaka" : 8
  }, {
    "isTrailer" : false,
    "note" : "S",
    "duration" : "FULL",
    "octave" : "UP1",
    "gamaka" : -1
  }, {
    "isTrailer" : false,
    "note" : "R",
    "duration" : "FULL",
    "octave" : "UP1",
    "gamaka" : 1
  }, {
    "isTrailer" : false,
    "note" : "S",
    "duration" : "FULL",
    "octave" : "UP1",
    "gamaka" : -1
  }, {
    "isTrailer" : false,
    "note" : "G",
    "duration" : "FULL",
    "octave" : "UP1",
    "gamaka" : -1
  }, {
    "isTrailer" : false,
    "note" : "R",
    "duration" : "DOUBLE",
    "octave" : "UP1",
    "gamaka" : 45
  }, {
    "isTrailer" : false,
    "note" : "S",
    "duration" : "FULL",
    "octave" : "UP1",
    "gamaka" : -1
  }, {
    "isTrailer" : true
  }, {
    "isTrailer" : false,
    "note" : "D",
    "duration" : "FULL",
    "octave" : "BASE",
    "gamaka" : 8
  }, {
    "isTrailer" : false,
    "note" : "S",
    "duration" : "FULL",
    "octave" : "UP1",
    "gamaka" : -1
  }, {
    "isTrailer" : false,
    "note" : "R",
    "duration" : "FULL",
    "octave" : "UP1",
    "gamaka" : -1
  }, {
    "isTrailer" : false,
    "note" : "S",
    "duration" : "DOUBLE",
    "octave" : "UP1",
    "gamaka" : 9
  }, {
    "isTrailer" : false,
    "note" : "D",
    "duration" : "FULL",
    "octave" : "BASE",
    "gamaka" : -1
  }, {
    "isTrailer" : false,
    "note" : "P",
    "duration" : "FULL",
    "octave" : "BASE",
    "gamaka" : -1
  }, {
    "isTrailer" : false,
    "note" : "D",
    "duration" : "FULL",
    "octave" : "BASE",
    "gamaka" : 1
  }, {
    "isTrailer" : true
  }, {
    "isTrailer" : false,
    "note" : "S",
    "duration" : "FULL",
    "octave" : "UP1",
    "gamaka" : -1
  }, {
    "isTrailer" : false,
    "note" : "D",
    "duration" : "DOUBLE",
    "octave" : "BASE",
    "gamaka" : 43
  }, {
    "isTrailer" : false,
    "note" : "P",
    "duration" : "FULL",
    "octave" : "BASE",
    "gamaka" : -1
  }, {
    "isTrailer" : false,
    "note" : "G",
    "duration" : "FULL",
    "octave" : "BASE",
    "gamaka" : -1
  }, {
    "isTrailer" : false,
    "note" : "R",
    "duration" : "FULL",
    "octave" : "BASE",
    "gamaka" : 30
  }, {
    "isTrailer" : false,
    "note" : "S",
    "duration" : "FULL",
    "octave" : "BASE",
    "gamaka" : -1
  }, {
    "isTrailer" : false,
    "note" : "R",
    "duration" : "FULL",
    "octave" : "BASE",
    "gamaka" : 8
  }, {
    "isTrailer" : true
  }, {
    "isTrailer" : true
  }, {
    "isTrailer" : false,
    "note" : "G",
    "duration" : "DOUBLE",
    "octave" : "BASE",
    "gamaka" : -1
  }, {
    "isTrailer" : false,
    "note" : "R",
    "duration" : "FULL",
    "octave" : "BASE",
    "gamaka" : 8
  }, {
    "isTrailer" : false,
    "note" : "G",
    "duration" : "FULL",
    "octave" : "BASE",
    "gamaka" : -1
  }, {
    "isTrailer" : false,
    "note" : "R",
    "duration" : "FULL",
    "octave" : "BASE",
    "gamaka" : -1
  }, {
    "isTrailer" : false,
    "note" : "S",
    "duration" : "FULL",
    "octave" : "BASE",
    "gamaka" : -1
  }, {
    "isTrailer" : false,
    "note" : "R",
    "duration" : "DOUBLE",
    "octave" : "BASE",
    "gamaka" : 47
  }, {
    "isTrailer" : true
  }, {
    "isTrailer" : false,
    "note" : "S",
    "duration" : "FULL",
    "octave" : "BASE",
    "gamaka" : -1
  }, {
    "isTrailer" : false,
    "note" : "R",
    "duration" : "FULL",
    "octave" : "BASE",
    "gamaka" : 8
  }, {
    "isTrailer" : false,
    "note" : "S",
    "duration" : "FULL",
    "octave" : "BASE",
    "gamaka" : -1
  }, {
    "isTrailer" : false,
    "note" : "G",
    "duration" : "FULL",
    "octave" : "BASE",
    "gamaka" : -1
  }, {
    "isTrailer" : false,
    "note" : "R",
    "duration" : "FULL",
    "octave" : "BASE",
    "gamaka" : 8
  }, {
    "isTrailer" : false,
    "note" : "G",
    "duration" : "FULL",
    "octave" : "BASE",
    "gamaka" : -1
  }, {
    "isTrailer" : false,
    "note" : "S",
    "duration" : "FULL",
    "octave" : "BASE",
    "gamaka" : -1
  }, {
    "isTrailer" : false,
    "note" : "R",
    "duration" : "FULL",
    "octave" : "BASE",
    "gamaka" : 8
  }, {
    "isTrailer" : true
  }, {
    "isTrailer" : false,
    "note" : "S",
    "duration" : "FULL",
    "octave" : "BASE",
    "gamaka" : -1
  }, {
    "isTrailer" : false,
    "note" : "D",
    "duration" : "FULL",
    "octave" : "DOWN1",
    "gamaka" : 4
  }, {
    "isTrailer" : false,
    "note" : "S",
    "duration" : "FULL",
    "octave" : "BASE",
    "gamaka" : -1
  }, {
    "isTrailer" : false,
    "note" : "R",
    "duration" : "FULL",
    "octave" : "BASE",
    "gamaka" : 1
  }, {
    "isTrailer" : false,
    "note" : "G",
    "duration" : "FULL",
    "octave" : "BASE",
    "gamaka" : -1
  }, {
    "isTrailer" : false,
    "note" : "R",
    "duration" : "FULL",
    "octave" : "BASE",
    "gamaka" : 8
  }, {
    "isTrailer" : false,
    "note" : "G",
    "duration" : "FULL",
    "octave" : "BASE",
    "gamaka" : -1
  }, {
    "isTrailer" : false,
    "note" : "P",
    "duration" : "FULL",
    "octave" : "BASE",
    "gamaka" : -1
  }, {
    "isTrailer" : true
  }, {
    "isTrailer" : false,
    "note" : "G",
    "duration" : "FULL",
    "octave" : "BASE",
    "gamaka" : -1
  }, {
    "isTrailer" : false,
    "note" : "P",
    "duration" : "FULL",
    "octave" : "BASE",
    "gamaka" : -1
  }, {
    "isTrailer" : false,
    "note" : "D",
    "duration" : "DOUBLE",
    "octave" : "BASE",
    "gamaka" : 47
  }, {
    "isTrailer" : false,
    "note" : "P",
    "duration" : "QUADRUPLE",
    "octave" : "BASE",
    "gamaka" : -1
  }, {
    "isTrailer" : true
  }, {
    "isTrailer" : false,
    "note" : "G",
    "duration" : "FULL",
    "octave" : "BASE",
    "gamaka" : -1
  }, {
    "isTrailer" : false,
    "note" : "P",
    "duration" : "FULL",
    "octave" : "BASE",
    "gamaka" : -1
  }, {
    "isTrailer" : false,
    "note" : "D",
    "duration" : "FULL",
    "octave" : "BASE",
    "gamaka" : 1
  }, {
    "isTrailer" : false,
    "note" : "P",
    "duration" : "FULL",
    "octave" : "BASE",
    "gamaka" : -1
  }, {
    "isTrailer" : false,
    "note" : "D",
    "duration" : "FULL",
    "octave" : "BASE",
    "gamaka" : 8
  }, {
    "isTrailer" : false,
    "note" : "S",
    "duration" : "FULL",
    "octave" : "UP1",
    "gamaka" : -1
  }, {
    "isTrailer" : false,
    "note" : "R",
    "duration" : "FULL",
    "octave" : "UP1",
    "gamaka" : 8
  }, {
    "isTrailer" : false,
    "note" : "G",
    "duration" : "FULL",
    "octave" : "UP1",
    "gamaka" : -1
  }, {
    "isTrailer" : true
  }, {
    "isTrailer" : false,
    "note" : "R",
    "duration" : "DOUBLE",
    "octave" : "UP1",
    "gamaka" : -1
  }, {
    "isTrailer" : false,
    "note" : "G",
    "duration" : "FULL",
    "octave" : "UP1",
    "gamaka" : -1
  }, {
    "isTrailer" : false,
    "note" : "S",
    "duration" : "DOUBLE",
    "octave" : "UP1",
    "gamaka" : 9
  }, {
    "isTrailer" : false,
    "note" : "R",
    "duration" : "FULL",
    "octave" : "UP1",
    "gamaka" : -1
  }, {
    "isTrailer" : false,
    "note" : "D",
    "duration" : "DOUBLE",
    "octave" : "BASE",
    "gamaka" : 4
  }, {
    "isTrailer" : true
  }, {
    "isTrailer" : false,
    "note" : "S",
    "duration" : "FULL",
    "octave" : "UP1",
    "gamaka" : -1
  }, {
    "isTrailer" : false,
    "note" : "P",
    "duration" : "DOUBLE",
    "octave" : "BASE",
    "gamaka" : -1
  }, {
    "isTrailer" : false,
    "note" : "D",
    "duration" : "FULL",
    "octave" : "BASE",
    "gamaka" : -1
  }, {
    "isTrailer" : false,
    "note" : "S",
    "duration" : "FULL",
    "octave" : "UP1",
    "gamaka" : -1
  }, {
    "isTrailer" : false,
    "note" : "R",
    "duration" : "FULL",
    "octave" : "UP1",
    "gamaka" : 8
  }, {
    "isTrailer" : false,
    "note" : "G",
    "duration" : "FULL",
    "octave" : "UP1",
    "gamaka" : -1
  }, {
    "isTrailer" : false,
    "note" : "S",
    "duration" : "FULL",
    "octave" : "UP1",
    "gamaka" : -1
  }, {
    "isTrailer" : true
  }, {
    "isTrailer" : false,
    "note" : "REST",
    "duration" : "FULL"
  }, {
    "isTrailer" : false,
    "note" : "D",
    "duration" : "FULL",
    "octave" : "BASE",
    "gamaka" : 8
  }, {
    "isTrailer" : false,
    "note" : "P",
    "duration" : "DOUBLE",
    "octave" : "BASE",
    "gamaka" : -1
  }, {
    "isTrailer" : false,
    "note" : "G",
    "duration" : "FULL",
    "octave" : "BASE",
    "gamaka" : -1
  }, {
    "isTrailer" : false,
    "note" : "R",
    "duration" : "FULL",
    "octave" : "BASE",
    "gamaka" : 30
  }, {
    "isTrailer" : false,
    "note" : "S",
    "duration" : "FULL",
    "octave" : "BASE",
    "gamaka" : -1
  }, {
    "isTrailer" : false,
    "note" : "R",
    "duration" : "FULL",
    "octave" : "BASE",
    "gamaka" : 1
  }, {
    "isTrailer" : true
  }, {
    "isTrailer" : true
  }, {
    "isTrailer" : false,
    "note" : "G",
    "duration" : "DOUBLE",
    "octave" : "BASE",
    "gamaka" : -1
  }, {
    "isTrailer" : false,
    "note" : "G",
    "duration" : "DOUBLE",
    "octave" : "BASE",
    "gamaka" : -1
  }, {
    "isTrailer" : false,
    "note" : "G",
    "duration" : "QUADRUPLE",
    "octave" : "BASE",
    "gamaka" : -1
  }, {
    "isTrailer" : true
  }, {
    "isTrailer" : false,
    "note" : "R",
    "duration" : "FULL",
    "octave" : "BASE",
    "gamaka" : 30
  }, {
    "isTrailer" : false,
    "note" : "G",
    "duration" : "FULL",
    "octave" : "BASE",
    "gamaka" : -1
  }, {
    "isTrailer" : false,
    "note" : "P",
    "duration" : "FULL",
    "octave" : "BASE",
    "gamaka" : 8
  }, {
    "isTrailer" : false,
    "note" : "G",
    "duration" : "FULL",
    "octave" : "BASE",
    "gamaka" : -1
  }, {
    "isTrailer" : false,
    "note" : "P",
    "duration" : "DOUBLE",
    "octave" : "BASE",
    "gamaka" : 9
  }, {
    "isTrailer" : false,
    "note" : "P",
    "duration" : "DOUBLE",
    "octave" : "BASE",
    "gamaka" : -1
  }, {
    "isTrailer" : true
  }, {
    "isTrailer" : false,
    "note" : "G",
    "duration" : "FULL",
    "octave" : "BASE",
    "gamaka" : -1
  }, {
    "isTrailer" : false,
    "note" : "G",
    "duration" : "FULL",
    "octave" : "BASE",
    "gamaka" : 36
  }, {
    "isTrailer" : false,
    "note" : "D",
    "duration" : "FULL",
    "octave" : "BASE",
    "gamaka" : -1
  }, {
    "isTrailer" : false,
    "note" : "P",
    "duration" : "FULL",
    "octave" : "BASE",
    "gamaka" : -1
  }, {
    "isTrailer" : false,
    "note" : "D",
    "duration" : "DOUBLE",
    "octave" : "BASE",
    "gamaka" : 47
  }, {
    "isTrailer" : false,
    "note" : "G",
    "duration" : "FULL",
    "octave" : "BASE",
    "gamaka" : -1
  }, {
    "isTrailer" : false,
    "note" : "D",
    "duration" : "FULL",
    "octave" : "BASE",
    "gamaka" : 24
  }, {
    "isTrailer" : true
  }, {
    "isTrailer" : false,
    "note" : "D",
    "duration" : "FULL",
    "octave" : "BASE",
    "gamaka" : -1
  }, {
    "isTrailer" : false,
    "note" : "P",
    "duration" : "FULL",
    "octave" : "BASE",
    "gamaka" : -1
  }, {
    "isTrailer" : false,
    "note" : "G",
    "duration" : "FULL",
    "octave" : "BASE",
    "gamaka" : 8
  }, {
    "isTrailer" : false,
    "note" : "P",
    "duration" : "FULL",
    "octave" : "BASE",
    "gamaka" : -1
  }, {
    "isTrailer" : false,
    "note" : "G",
    "duration" : "FULL",
    "octave" : "BASE",
    "gamaka" : -1
  }, {
    "isTrailer" : false,
    "note" : "R",
    "duration" : "FULL",
    "octave" : "BASE",
    "gamaka" : 30
  }, {
    "isTrailer" : false,
    "note" : "S",
    "duration" : "FULL",
    "octave" : "BASE",
    "gamaka" : -1
  }, {
    "isTrailer" : false,
    "note" : "R",
    "duration" : "FULL",
    "octave" : "BASE",
    "gamaka" : 1
  }, {
    "isTrailer" : true
  }, {
    "isTrailer" : true
  }, {
    "isTrailer" : false,
    "note" : "G",
    "duration" : "QUADRUPLE",
    "octave" : "BASE",
    "gamaka" : -1
  }, {
    "isTrailer" : false,
    "note" : "R",
    "duration" : "DOUBLE",
    "octave" : "BASE",
    "gamaka" : 45
  }, {
    "isTrailer" : false,
    "note" : "S",
    "duration" : "DOUBLE",
    "octave" : "BASE",
    "gamaka" : -1
  }, {
    "isTrailer" : true
  }, {
    "isTrailer" : false,
    "note" : "R",
    "duration" : "QUADRUPLE",
    "octave" : "BASE",
    "gamaka" : 47
  }, {
    "isTrailer" : false,
    "note" : "D",
    "duration" : "QUADRUPLE",
    "octave" : "DOWN1",
    "gamaka" : 43
  }, {
    "isTrailer" : true
  }, {
    "isTrailer" : false,
    "note" : "R",
    "duration" : "DOUBLE",
    "octave" : "BASE",
    "gamaka" : -1
  }, {
    "isTrailer" : false,
    "note" : "D",
    "duration" : "DOUBLE",
    "octave" : "DOWN1",
    "gamaka" : 4
  }, {
    "isTrailer" : false,
    "note" : "S",
    "duration" : "QUADRUPLE",
    "octave" : "BASE",
    "gamaka" : -1
  }, {
    "isTrailer" : true
  }, {
    "isTrailer" : false,
    "note" : "R",
    "duration" : "QUADRUPLE",
    "octave" : "BASE",
    "gamaka" : 47
  }, {
    "isTrailer" : false,
    "note" : "G",
    "duration" : "DOUBLE",
    "octave" : "BASE",
    "gamaka" : -1
  }, {
    "isTrailer" : false,
    "note" : "R",
    "duration" : "DOUBLE",
    "octave" : "BASE",
    "gamaka" : 30
  }, {
    "isTrailer" : true
  }, {
    "isTrailer" : true
  }, {
    "isTrailer" : false,
    "note" : "G",
    "duration" : "DOUBLE",
    "octave" : "BASE",
    "gamaka" : -1
  }, {
    "isTrailer" : false,
    "note" : "G",
    "duration" : "DOUBLE",
    "octave" : "BASE",
    "gamaka" : -1
  }, {
    "isTrailer" : false,
    "note" : "G",
    "duration" : "QUADRUPLE",
    "octave" : "BASE",
    "gamaka" : -1
  }, {
    "isTrailer" : true
  }, {
    "isTrailer" : false,
    "note" : "R",
    "duration" : "FULL",
    "octave" : "BASE",
    "gamaka" : 8
  }, {
    "isTrailer" : false,
    "note" : "G",
    "duration" : "FULL",
    "octave" : "BASE",
    "gamaka" : -1
  }, {
    "isTrailer" : false,
    "note" : "P",
    "duration" : "FULL",
    "octave" : "BASE",
    "gamaka" : 8
  }, {
    "isTrailer" : false,
    "note" : "G",
    "duration" : "FULL",
    "octave" : "BASE",
    "gamaka" : -1
  }, {
    "isTrailer" : false,
    "note" : "P",
    "duration" : "DOUBLE",
    "octave" : "BASE",
    "gamaka" : 9
  }, {
    "isTrailer" : false,
    "note" : "P",
    "duration" : "DOUBLE",
    "octave" : "BASE",
    "gamaka" : -1
  }, {
    "isTrailer" : true
  }, {
    "isTrailer" : false,
    "note" : "G",
    "duration" : "FULL",
    "octave" : "BASE",
    "gamaka" : -1
  }, {
    "isTrailer" : false,
    "note" : "G",
    "duration" : "FULL",
    "octave" : "BASE",
    "gamaka" : 36
  }, {
    "isTrailer" : false,
    "note" : "D",
    "duration" : "FULL",
    "octave" : "BASE",
    "gamaka" : -1
  }, {
    "isTrailer" : false,
    "note" : "P",
    "duration" : "FULL",
    "octave" : "BASE",
    "gamaka" : -1
  }, {
    "isTrailer" : false,
    "note" : "D",
    "duration" : "DOUBLE",
    "octave" : "BASE",
    "gamaka" : 1
  }, {
    "isTrailer" : false,
    "note" : "G",
    "duration" : "FULL",
    "octave" : "BASE",
    "gamaka" : -1
  }, {
    "isTrailer" : false,
    "note" : "D",
    "duration" : "FULL",
    "octave" : "BASE",
    "gamaka" : 24
  }, {
    "isTrailer" : true
  }, {
    "isTrailer" : false,
    "note" : "D",
    "duration" : "FULL",
    "octave" : "BASE",
    "gamaka" : -1
  }, {
    "isTrailer" : false,
    "note" : "P",
    "duration" : "FULL",
    "octave" : "BASE",
    "gamaka" : -1
  }, {
    "isTrailer" : false,
    "note" : "G",
    "duration" : "FULL",
    "octave" : "BASE",
    "gamaka" : 8
  }, {
    "isTrailer" : false,
    "note" : "P",
    "duration" : "FULL",
    "octave" : "BASE",
    "gamaka" : -1
  }, {
    "isTrailer" : false,
    "note" : "G",
    "duration" : "FULL",
    "octave" : "BASE",
    "gamaka" : -1
  }, {
    "isTrailer" : false,
    "note" : "R",
    "duration" : "FULL",
    "octave" : "BASE",
    "gamaka" : 30
  }, {
    "isTrailer" : false,
    "note" : "S",
    "duration" : "FULL",
    "octave" : "BASE",
    "gamaka" : -1
  }, {
    "isTrailer" : false,
    "note" : "R",
    "duration" : "FULL",
    "octave" : "BASE",
    "gamaka" : 1
  }, {
    "isTrailer" : true
  }, {
    "isTrailer" : true
  }, {
    "isTrailer" : true
  }, {
    "isTrailer" : false,
    "note" : "G",
    "duration" : "DOUBLE",
    "octave" : "BASE",
    "gamaka" : -1
  }, {
    "isTrailer" : false,
    "note" : "G",
    "duration" : "FULL",
    "octave" : "BASE",
    "gamaka" : -1
  }, {
    "isTrailer" : false,
    "note" : "R",
    "duration" : "FULL",
    "octave" : "BASE",
    "gamaka" : 8
  }, {
    "isTrailer" : false,
    "note" : "G",
    "duration" : "FULL",
    "octave" : "BASE",
    "gamaka" : -1
  }, {
    "isTrailer" : false,
    "note" : "R",
    "duration" : "FULL",
    "octave" : "BASE",
    "gamaka" : 8
  }, {
    "isTrailer" : false,
    "note" : "S",
    "duration" : "FULL",
    "octave" : "BASE",
    "gamaka" : -1
  }, {
    "isTrailer" : false,
    "note" : "R",
    "duration" : "FULL",
    "octave" : "BASE",
    "gamaka" : 1
  }, {
    "isTrailer" : true
  }, {
    "isTrailer" : false,
    "note" : "G",
    "duration" : "DOUBLE",
    "octave" : "BASE",
    "gamaka" : -1
  }, {
    "isTrailer" : false,
    "note" : "G",
    "duration" : "FULL",
    "octave" : "BASE",
    "gamaka" : -1
  }, {
    "isTrailer" : false,
    "note" : "P",
    "duration" : "FULL",
    "octave" : "DOWN1",
    "gamaka" : -1
  }, {
    "isTrailer" : false,
    "note" : "D",
    "duration" : "FULL",
    "octave" : "DOWN1",
    "gamaka" : -1
  }, {
    "isTrailer" : false,
    "note" : "D",
    "duration" : "FULL",
    "octave" : "DOWN1",
    "gamaka" : 40
  }, {
    "isTrailer" : false,
    "note" : "S",
    "duration" : "FULL",
    "octave" : "BASE",
    "gamaka" : -1
  }, {
    "isTrailer" : false,
    "note" : "R",
    "duration" : "FULL",
    "octave" : "BASE",
    "gamaka" : 8
  }, {
    "isTrailer" : true
  }, {
    "isTrailer" : false,
    "note" : "G",
    "duration" : "DOUBLE",
    "octave" : "BASE",
    "gamaka" : -1
  }, {
    "isTrailer" : false,
    "note" : "G",
    "duration" : "FULL",
    "octave" : "BASE",
    "gamaka" : -1
  }, {
    "isTrailer" : false,
    "note" : "G",
    "duration" : "FULL",
    "octave" : "BASE",
    "gamaka" : 36
  }, {
    "isTrailer" : false,
    "note" : "D",
    "duration" : "FULL",
    "octave" : "BASE",
    "gamaka" : -1
  }, {
    "isTrailer" : false,
    "note" : "P",
    "duration" : "FULL",
    "octave" : "BASE",
    "gamaka" : -1
  }, {
    "isTrailer" : false,
    "note" : "G",
    "duration" : "FULL",
    "octave" : "BASE",
    "gamaka" : -1
  }, {
    "isTrailer" : false,
    "note" : "R",
    "duration" : "FULL",
    "octave" : "BASE",
    "gamaka" : 30
  }, {
    "isTrailer" : true
  }, {
    "isTrailer" : false,
    "note" : "G",
    "duration" : "DOUBLE",
    "octave" : "BASE",
    "gamaka" : -1
  }, {
    "isTrailer" : false,
    "note" : "G",
    "duration" : "FULL",
    "octave" : "BASE",
    "gamaka" : -1
  }, {
    "isTrailer" : false,
    "note" : "S",
    "duration" : "FULL",
    "octave" : "UP1",
    "gamaka" : -1
  }, {
    "isTrailer" : false,
    "note" : "D",
    "duration" : "FULL",
    "octave" : "BASE",
    "gamaka" : 40
  }, {
    "isTrailer" : false,
    "note" : "P",
    "duration" : "FULL",
    "octave" : "BASE",
    "gamaka" : -1
  }, {
    "isTrailer" : false,
    "note" : "G",
    "duration" : "FULL",
    "octave" : "BASE",
    "gamaka" : -1
  }, {
    "isTrailer" : false,
    "note" : "R",
    "duration" : "FULL",
    "octave" : "BASE",
    "gamaka" : 30
  }, {
    "isTrailer" : true
  }, {
    "isTrailer" : true
  }, {
    "isTrailer" : false,
    "note" : "G",
    "duration" : "DOUBLE",
    "octave" : "BASE",
    "gamaka" : -1
  }, {
    "isTrailer" : false,
    "note" : "G",
    "duration" : "DOUBLE",
    "octave" : "BASE",
    "gamaka" : -1
  }, {
    "isTrailer" : false,
    "note" : "G",
    "duration" : "QUADRUPLE",
    "octave" : "BASE",
    "gamaka" : -1
  }, {
    "isTrailer" : true
  }, {
    "isTrailer" : false,
    "note" : "R",
    "duration" : "FULL",
    "octave" : "BASE",
    "gamaka" : 30
  }, {
    "isTrailer" : false,
    "note" : "G",
    "duration" : "FULL",
    "octave" : "BASE",
    "gamaka" : -1
  }, {
    "isTrailer" : false,
    "note" : "P",
    "duration" : "FULL",
    "octave" : "BASE",
    "gamaka" : -1
  }, {
    "isTrailer" : false,
    "note" : "G",
    "duration" : "FULL",
    "octave" : "BASE",
    "gamaka" : -1
  }, {
    "isTrailer" : false,
    "note" : "P",
    "duration" : "DOUBLE",
    "octave" : "BASE",
    "gamaka" : 9
  }, {
    "isTrailer" : false,
    "note" : "P",
    "duration" : "DOUBLE",
    "octave" : "BASE",
    "gamaka" : -1
  }, {
    "isTrailer" : true
  }, {
    "isTrailer" : false,
    "note" : "G",
    "duration" : "FULL",
    "octave" : "BASE",
    "gamaka" : -1
  }, {
    "isTrailer" : false,
    "note" : "G",
    "duration" : "FULL",
    "octave" : "BASE",
    "gamaka" : 36
  }, {
    "isTrailer" : false,
    "note" : "D",
    "duration" : "FULL",
    "octave" : "BASE",
    "gamaka" : -1
  }, {
    "isTrailer" : false,
    "note" : "P",
    "duration" : "FULL",
    "octave" : "BASE",
    "gamaka" : -1
  }, {
    "isTrailer" : false,
    "note" : "D",
    "duration" : "DOUBLE",
    "octave" : "BASE",
    "gamaka" : 47
  }, {
    "isTrailer" : false,
    "note" : "G",
    "duration" : "FULL",
    "octave" : "BASE",
    "gamaka" : -1
  }, {
    "isTrailer" : false,
    "note" : "D",
    "duration" : "FULL",
    "octave" : "BASE",
    "gamaka" : 24
  }, {
    "isTrailer" : true
  }, {
    "isTrailer" : false,
    "note" : "D",
    "duration" : "FULL",
    "octave" : "BASE",
    "gamaka" : -1
  }, {
    "isTrailer" : false,
    "note" : "P",
    "duration" : "FULL",
    "octave" : "BASE",
    "gamaka" : -1
  }, {
    "isTrailer" : false,
    "note" : "G",
    "duration" : "FULL",
    "octave" : "BASE",
    "gamaka" : 8
  }, {
    "isTrailer" : false,
    "note" : "P",
    "duration" : "FULL",
    "octave" : "BASE",
    "gamaka" : -1
  }, {
    "isTrailer" : false,
    "note" : "G",
    "duration" : "FULL",
    "octave" : "BASE",
    "gamaka" : -1
  }, {
    "isTrailer" : false,
    "note" : "R",
    "duration" : "FULL",
    "octave" : "BASE",
    "gamaka" : 30
  }, {
    "isTrailer" : false,
    "note" : "S",
    "duration" : "FULL",
    "octave" : "BASE",
    "gamaka" : -1
  }, {
    "isTrailer" : false,
    "note" : "R",
    "duration" : "FULL",
    "octave" : "BASE",
    "gamaka" : 1
  }, {
    "isTrailer" : true
  }, {
    "isTrailer" : true
  }, {
    "isTrailer" : true
  }, {
    "isTrailer" : false,
    "note" : "P",
    "duration" : "DOUBLE",
    "octave" : "BASE",
    "gamaka" : -1
  }, {
    "isTrailer" : false,
    "note" : "D",
    "duration" : "FULL",
    "octave" : "BASE",
    "gamaka" : -1
  }, {
    "isTrailer" : false,
    "note" : "D",
    "duration" : "FULL",
    "octave" : "BASE",
    "gamaka" : 36
  }, {
    "isTrailer" : false,
    "note" : "P",
    "duration" : "DOUBLE",
    "octave" : "BASE",
    "gamaka" : -1
  }, {
    "isTrailer" : false,
    "note" : "G",
    "duration" : "FULL",
    "octave" : "BASE",
    "gamaka" : -1
  }, {
    "isTrailer" : false,
    "note" : "R",
    "duration" : "FULL",
    "octave" : "BASE",
    "gamaka" : 30
  }, {
    "isTrailer" : true
  }, {
    "isTrailer" : false,
    "note" : "S",
    "duration" : "DOUBLE",
    "octave" : "BASE",
    "gamaka" : -1
  }, {
    "isTrailer" : false,
    "note" : "R",
    "duration" : "FULL",
    "octave" : "BASE",
    "gamaka" : 1
  }, {
    "isTrailer" : false,
    "note" : "G",
    "duration" : "FULL",
    "octave" : "BASE",
    "gamaka" : -1
  }, {
    "isTrailer" : false,
    "note" : "R",
    "duration" : "DOUBLE",
    "octave" : "BASE",
    "gamaka" : -1
  }, {
    "isTrailer" : false,
    "note" : "S",
    "duration" : "FULL",
    "octave" : "BASE",
    "gamaka" : -1
  }, {
    "isTrailer" : false,
    "note" : "D",
    "duration" : "FULL",
    "octave" : "DOWN1",
    "gamaka" : 11
  }, {
    "isTrailer" : true
  }, {
    "isTrailer" : false,
    "note" : "S",
    "duration" : "DOUBLE",
    "octave" : "BASE",
    "gamaka" : 9
  }, {
    "isTrailer" : false,
    "note" : "R",
    "duration" : "FULL",
    "octave" : "BASE",
    "gamaka" : 8
  }, {
    "isTrailer" : false,
    "note" : "G",
    "duration" : "FULL",
    "octave" : "BASE",
    "gamaka" : -1
  }, {
    "isTrailer" : false,
    "note" : "P",
    "duration" : "DOUBLE",
    "octave" : "BASE",
    "gamaka" : -1
  }, {
    "isTrailer" : false,
    "note" : "D",
    "duration" : "DOUBLE",
    "octave" : "BASE",
    "gamaka" : 47
  }, {
    "isTrailer" : true
  }, {
    "isTrailer" : false,
    "note" : "S",
    "duration" : "FULL",
    "octave" : "UP1",
    "gamaka" : 9
  }, {
    "isTrailer" : false,
    "note" : "S",
    "duration" : "DOUBLE",
    "octave" : "UP1",
    "gamaka" : -1
  }, {
    "isTrailer" : false,
    "note" : "D",
    "duration" : "FULL",
    "octave" : "BASE",
    "gamaka" : 4
  }, {
    "isTrailer" : false,
    "note" : "P",
    "duration" : "DOUBLE",
    "octave" : "BASE",
    "gamaka" : -1
  }, {
    "isTrailer" : false,
    "note" : "G",
    "duration" : "FULL",
    "octave" : "BASE",
    "gamaka" : -1
  }, {
    "isTrailer" : false,
    "note" : "R",
    "duration" : "FULL",
    "octave" : "BASE",
    "gamaka" : 30
  }, {
    "isTrailer" : true
  }, {
    "isTrailer" : true
  }, {
    "isTrailer" : false,
    "note" : "G",
    "duration" : "DOUBLE",
    "octave" : "BASE",
    "gamaka" : -1
  }, {
    "isTrailer" : false,
    "note" : "G",
    "duration" : "DOUBLE",
    "octave" : "BASE",
    "gamaka" : -1
  }, {
    "isTrailer" : false,
    "note" : "G",
    "duration" : "QUADRUPLE",
    "octave" : "BASE",
    "gamaka" : -1
  }, {
    "isTrailer" : true
  }, {
    "isTrailer" : false,
    "note" : "R",
    "duration" : "FULL",
    "octave" : "BASE",
    "gamaka" : 30
  }, {
    "isTrailer" : false,
    "note" : "G",
    "duration" : "FULL",
    "octave" : "BASE",
    "gamaka" : -1
  }, {
    "isTrailer" : false,
    "note" : "P",
    "duration" : "FULL",
    "octave" : "BASE",
    "gamaka" : -1
  }, {
    "isTrailer" : false,
    "note" : "G",
    "duration" : "FULL",
    "octave" : "BASE",
    "gamaka" : -1
  }, {
    "isTrailer" : false,
    "note" : "P",
    "duration" : "DOUBLE",
    "octave" : "BASE",
    "gamaka" : 9
  }, {
    "isTrailer" : false,
    "note" : "P",
    "duration" : "DOUBLE",
    "octave" : "BASE",
    "gamaka" : -1
  }, {
    "isTrailer" : true
  }, {
    "isTrailer" : false,
    "note" : "G",
    "duration" : "FULL",
    "octave" : "BASE",
    "gamaka" : -1
  }, {
    "isTrailer" : false,
    "note" : "G",
    "duration" : "FULL",
    "octave" : "BASE",
    "gamaka" : 36
  }, {
    "isTrailer" : false,
    "note" : "D",
    "duration" : "FULL",
    "octave" : "BASE",
    "gamaka" : -1
  }, {
    "isTrailer" : false,
    "note" : "P",
    "duration" : "FULL",
    "octave" : "BASE",
    "gamaka" : -1
  }, {
    "isTrailer" : false,
    "note" : "D",
    "duration" : "DOUBLE",
    "octave" : "BASE",
    "gamaka" : 1
  }, {
    "isTrailer" : false,
    "note" : "G",
    "duration" : "FULL",
    "octave" : "BASE",
    "gamaka" : -1
  }, {
    "isTrailer" : false,
    "note" : "D",
    "duration" : "FULL",
    "octave" : "BASE",
    "gamaka" : 24
  }, {
    "isTrailer" : true
  }, {
    "isTrailer" : false,
    "note" : "D",
    "duration" : "FULL",
    "octave" : "BASE",
    "gamaka" : -1
  }, {
    "isTrailer" : false,
    "note" : "P",
    "duration" : "FULL",
    "octave" : "BASE",
    "gamaka" : -1
  }, {
    "isTrailer" : false,
    "note" : "G",
    "duration" : "FULL",
    "octave" : "BASE",
    "gamaka" : 40
  }, {
    "isTrailer" : false,
    "note" : "P",
    "duration" : "FULL",
    "octave" : "BASE",
    "gamaka" : -1
  }, {
    "isTrailer" : false,
    "note" : "G",
    "duration" : "FULL",
    "octave" : "BASE",
    "gamaka" : 40
  }, {
    "isTrailer" : false,
    "note" : "R",
    "duration" : "FULL",
    "octave" : "BASE",
    "gamaka" : 30
  }, {
    "isTrailer" : false,
    "note" : "S",
    "duration" : "FULL",
    "octave" : "BASE",
    "gamaka" : -1
  }, {
    "isTrailer" : false,
    "note" : "R",
    "duration" : "FULL",
    "octave" : "BASE",
    "gamaka" : 1
  }, {
    "isTrailer" : true
  }, {
    "isTrailer" : true
  }, {
    "isTrailer" : false,
    "note" : "S",
    "duration" : "DOUBLE",
    "octave" : "UP1",
    "gamaka" : -1
  }, {
    "isTrailer" : false,
    "note" : "R",
    "duration" : "FULL",
    "octave" : "UP1",
    "gamaka" : 1
  }, {
    "isTrailer" : false,
    "note" : "G",
    "duration" : "FULL",
    "octave" : "UP1",
    "gamaka" : -1
  }, {
    "isTrailer" : false,
    "note" : "R",
    "duration" : "FULL",
    "octave" : "UP1",
    "gamaka" : 30
  }, {
    "isTrailer" : false,
    "note" : "S",
    "duration" : "FULL",
    "octave" : "UP1",
    "gamaka" : -1
  }, {
    "isTrailer" : false,
    "note" : "R",
    "duration" : "FULL",
    "octave" : "UP1",
    "gamaka" : 8
  }, {
    "isTrailer" : false,
    "note" : "S",
    "duration" : "FULL",
    "octave" : "UP1",
    "gamaka" : -1
  }, {
    "isTrailer" : true
  }, {
    "isTrailer" : false,
    "note" : "D",
    "duration" : "FULL",
    "octave" : "BASE",
    "gamaka" : 40
  }, {
    "isTrailer" : false,
    "note" : "S",
    "duration" : "FULL",
    "octave" : "UP1",
    "gamaka" : -1
  }, {
    "isTrailer" : false,
    "note" : "D",
    "duration" : "FULL",
    "octave" : "BASE",
    "gamaka" : 11
  }, {
    "isTrailer" : false,
    "note" : "P",
    "duration" : "FULL",
    "octave" : "BASE",
    "gamaka" : -1
  }, {
    "isTrailer" : false,
    "note" : "G",
    "duration" : "FULL",
    "octave" : "BASE",
    "gamaka" : -1
  }, {
    "isTrailer" : false,
    "note" : "R",
    "duration" : "FULL",
    "octave" : "BASE",
    "gamaka" : 30
  }, {
    "isTrailer" : false,
    "note" : "S",
    "duration" : "FULL",
    "octave" : "BASE",
    "gamaka" : -1
  }, {
    "isTrailer" : false,
    "note" : "R",
    "duration" : "FULL",
    "octave" : "BASE",
    "gamaka" : 1
  }, {
    "isTrailer" : true
  }, {
    "isTrailer" : false,
    "note" : "S",
    "duration" : "QUADRUPLE",
    "octave" : "BASE",
    "gamaka" : -1
  }, {
    "isTrailer" : false,
    "note" : "S",
    "duration" : "DOUBLE",
    "octave" : "BASE",
    "gamaka" : -1
  }, {
    "isTrailer" : false,
    "note" : "S",
    "duration" : "FULL",
    "octave" : "BASE",
    "gamaka" : -1
  }, {
    "isTrailer" : false,
    "note" : "S",
    "duration" : "FULL",
    "octave" : "BASE",
    "gamaka" : 9
  }, {
    "isTrailer" : true
  }, {
    "isTrailer" : false,
    "note" : "R",
    "duration" : "FULL",
    "octave" : "BASE",
    "gamaka" : -1
  }, {
    "isTrailer" : false,
    "note" : "R",
    "duration" : "FULL",
    "octave" : "BASE",
    "gamaka" : 36
  }, {
    "isTrailer" : false,
    "note" : "G",
    "duration" : "FULL",
    "octave" : "BASE",
    "gamaka" : -1
  }, {
    "isTrailer" : false,
    "note" : "G",
    "duration" : "FULL",
    "octave" : "BASE",
    "gamaka" : 36
  }, {
    "isTrailer" : false,
    "note" : "P",
    "duration" : "FULL",
    "octave" : "BASE",
    "gamaka" : -1
  }, {
    "isTrailer" : false,
    "note" : "P",
    "duration" : "FULL",
    "octave" : "BASE",
    "gamaka" : 9
  }, {
    "isTrailer" : false,
    "note" : "D",
    "duration" : "FULL",
    "octave" : "BASE",
    "gamaka" : -1
  }, {
    "isTrailer" : false,
    "note" : "D",
    "duration" : "FULL",
    "octave" : "BASE",
    "gamaka" : 36
  }, {
    "isTrailer" : true
  }, {
    "isTrailer" : false,
    "note" : "S",
    "duration" : "FULL",
    "octave" : "UP1",
    "gamaka" : -1
  }, {
    "isTrailer" : false,
    "note" : "R",
    "duration" : "FULL",
    "octave" : "UP1",
    "gamaka" : 1
  }, {
    "isTrailer" : false,
    "note" : "G",
    "duration" : "FULL",
    "octave" : "UP1",
    "gamaka" : -1
  }, {
    "isTrailer" : false,
    "note" : "R",
    "duration" : "FULL",
    "octave" : "UP1",
    "gamaka" : 30
  }, {
    "isTrailer" : false,
    "note" : "G",
    "duration" : "FULL",
    "octave" : "UP1",
    "gamaka" : -1
  }, {
    "isTrailer" : false,
    "note" : "R",
    "duration" : "FULL",
    "octave" : "UP1",
    "gamaka" : 30
  }, {
    "isTrailer" : false,
    "note" : "D",
    "duration" : "FULL",
    "octave" : "BASE",
    "gamaka" : -1
  }, {
    "isTrailer" : false,
    "note" : "S",
    "duration" : "FULL",
    "octave" : "UP1",
    "gamaka" : 9
  }, {
    "isTrailer" : true
  }, {
    "isTrailer" : false,
    "note" : "R",
    "duration" : "FULL",
    "octave" : "UP1",
    "gamaka" : -1
  }, {
    "isTrailer" : false,
    "note" : "S",
    "duration" : "FULL",
    "octave" : "UP1",
    "gamaka" : -1
  }, {
    "isTrailer" : false,
    "note" : "R",
    "duration" : "FULL",
    "octave" : "UP1",
    "gamaka" : 8
  }, {
    "isTrailer" : false,
    "note" : "S",
    "duration" : "FULL",
    "octave" : "UP1",
    "gamaka" : -1
  }, {
    "isTrailer" : false,
    "note" : "P",
    "duration" : "FULL",
    "octave" : "BASE",
    "gamaka" : -1
  }, {
    "isTrailer" : false,
    "note" : "D",
    "duration" : "FULL",
    "octave" : "BASE",
    "gamaka" : -1
  }, {
    "isTrailer" : false,
    "note" : "S",
    "duration" : "FULL",
    "octave" : "UP1",
    "gamaka" : 9
  }, {
    "isTrailer" : false,
    "note" : "D",
    "duration" : "FULL",
    "octave" : "BASE",
    "gamaka" : -1
  }, {
    "isTrailer" : true
  }, {
    "isTrailer" : false,
    "note" : "S",
    "duration" : "FULL",
    "octave" : "UP1",
    "gamaka" : 9
  }, {
    "isTrailer" : false,
    "note" : "D",
    "duration" : "FULL",
    "octave" : "BASE",
    "gamaka" : -1
  }, {
    "isTrailer" : false,
    "note" : "G",
    "duration" : "FULL",
    "octave" : "BASE",
    "gamaka" : -1
  }, {
    "isTrailer" : false,
    "note" : "P",
    "duration" : "FULL",
    "octave" : "BASE",
    "gamaka" : -1
  }, {
    "isTrailer" : false,
    "note" : "D",
    "duration" : "FULL",
    "octave" : "BASE",
    "gamaka" : 36
  }, {
    "isTrailer" : false,
    "note" : "P",
    "duration" : "FULL",
    "octave" : "BASE",
    "gamaka" : -1
  }, {
    "isTrailer" : false,
    "note" : "D",
    "duration" : "FULL",
    "octave" : "BASE",
    "gamaka" : 36
  }, {
    "isTrailer" : false,
    "note" : "P",
    "duration" : "FULL",
    "octave" : "BASE",
    "gamaka" : -1
  }, {
    "isTrailer" : true
  }, {
    "isTrailer" : false,
    "note" : "R",
    "duration" : "FULL",
    "octave" : "UP1",
    "gamaka" : -1
  }, {
    "isTrailer" : false,
    "note" : "S",
    "duration" : "FULL",
    "octave" : "UP1",
    "gamaka" : -1
  }, {
    "isTrailer" : false,
    "note" : "D",
    "duration" : "FULL",
    "octave" : "BASE",
    "gamaka" : 40
  }, {
    "isTrailer" : false,
    "note" : "P",
    "duration" : "FULL",
    "octave" : "BASE",
    "gamaka" : -1
  }, {
    "isTrailer" : false,
    "note" : "G",
    "duration" : "FULL",
    "octave" : "BASE",
    "gamaka" : -1
  }, {
    "isTrailer" : false,
    "note" : "R",
    "duration" : "FULL",
    "octave" : "BASE",
    "gamaka" : 30
  }, {
    "isTrailer" : false,
    "note" : "S",
    "duration" : "FULL",
    "octave" : "BASE",
    "gamaka" : -1
  }, {
    "isTrailer" : false,
    "note" : "R",
    "duration" : "FULL",
    "octave" : "BASE",
    "gamaka" : 1
  }, {
    "isTrailer" : true
  }, {
    "isTrailer" : true
  }, {
    "isTrailer" : false,
    "note" : "G",
    "duration" : "DOUBLE",
    "octave" : "BASE",
    "gamaka" : -1
  }, {
    "isTrailer" : false,
    "note" : "G",
    "duration" : "DOUBLE",
    "octave" : "BASE",
    "gamaka" : -1
  }, {
    "isTrailer" : false,
    "note" : "G",
    "duration" : "QUADRUPLE",
    "octave" : "BASE",
    "gamaka" : -1
  }, {
    "isTrailer" : true
  }, {
    "isTrailer" : false,
    "note" : "R",
    "duration" : "FULL",
    "octave" : "BASE",
    "gamaka" : 8
  }, {
    "isTrailer" : false,
    "note" : "G",
    "duration" : "FULL",
    "octave" : "BASE",
    "gamaka" : -1
  }, {
    "isTrailer" : false,
    "note" : "P",
    "duration" : "FULL",
    "octave" : "BASE",
    "gamaka" : -1
  }, {
    "isTrailer" : false,
    "note" : "G",
    "duration" : "FULL",
    "octave" : "BASE",
    "gamaka" : -1
  }, {
    "isTrailer" : false,
    "note" : "P",
    "duration" : "DOUBLE",
    "octave" : "BASE",
    "gamaka" : 9
  }, {
    "isTrailer" : false,
    "note" : "P",
    "duration" : "DOUBLE",
    "octave" : "BASE",
    "gamaka" : -1
  }, {
    "isTrailer" : true
  }, {
    "isTrailer" : false,
    "note" : "G",
    "duration" : "FULL",
    "octave" : "BASE",
    "gamaka" : -1
  }, {
    "isTrailer" : false,
    "note" : "G",
    "duration" : "FULL",
    "octave" : "BASE",
    "gamaka" : 36
  }, {
    "isTrailer" : false,
    "note" : "D",
    "duration" : "FULL",
    "octave" : "BASE",
    "gamaka" : -1
  }, {
    "isTrailer" : false,
    "note" : "P",
    "duration" : "FULL",
    "octave" : "BASE",
    "gamaka" : -1
  }, {
    "isTrailer" : false,
    "note" : "D",
    "duration" : "DOUBLE",
    "octave" : "BASE",
    "gamaka" : 47
  }, {
    "isTrailer" : false,
    "note" : "G",
    "duration" : "FULL",
    "octave" : "BASE",
    "gamaka" : -1
  }, {
    "isTrailer" : false,
    "note" : "D",
    "duration" : "FULL",
    "octave" : "BASE",
    "gamaka" : 24
  }, {
    "isTrailer" : true
  }, {
    "isTrailer" : false,
    "note" : "D",
    "duration" : "FULL",
    "octave" : "BASE",
    "gamaka" : -1
  }, {
    "isTrailer" : false,
    "note" : "P",
    "duration" : "FULL",
    "octave" : "BASE",
    "gamaka" : -1
  }, {
    "isTrailer" : false,
    "note" : "G",
    "duration" : "FULL",
    "octave" : "BASE",
    "gamaka" : 8
  }, {
    "isTrailer" : false,
    "note" : "P",
    "duration" : "FULL",
    "octave" : "BASE",
    "gamaka" : -1
  }, {
    "isTrailer" : false,
    "note" : "G",
    "duration" : "FULL",
    "octave" : "BASE",
    "gamaka" : -1
  }, {
    "isTrailer" : false,
    "note" : "R",
    "duration" : "FULL",
    "octave" : "BASE",
    "gamaka" : 30
  }, {
    "isTrailer" : false,
    "note" : "S",
    "duration" : "FULL",
    "octave" : "BASE",
    "gamaka" : -1
  }, {
    "isTrailer" : false,
    "note" : "R",
    "duration" : "FULL",
    "octave" : "BASE",
    "gamaka" : 1
  }, {
    "isTrailer" : true
  }, {
    "isTrailer" : true
  }, {
    "isTrailer" : false,
    "note" : "G",
    "duration" : "DOUBLE",
    "octave" : "BASE",
    "gamaka" : -1
  }, {
    "isTrailer" : false,
    "note" : "G",
    "duration" : "DOUBLE",
    "octave" : "BASE",
    "gamaka" : -1
  }, {
    "isTrailer" : false,
    "note" : "G",
    "duration" : "QUADRUPLE",
    "octave" : "BASE",
    "gamaka" : -1
  }, {
    "isTrailer" : true
  }, {
    "isTrailer" : false,
    "note" : "R",
    "duration" : "DOUBLE",
    "octave" : "BASE",
    "gamaka" : 30
  }, {
    "isTrailer" : false,
    "note" : "R",
    "duration" : "QUADRUPLE",
    "octave" : "BASE",
    "gamaka" : -1
  }, {
    "isTrailer" : false,
    "note" : "R",
    "duration" : "DOUBLE",
    "octave" : "BASE",
    "gamaka" : -1
  }, {
    "isTrailer" : true
  }, {
    "isTrailer" : false,
    "note" : "S",
    "duration" : "QUADRUPLE",
    "octave" : "BASE",
    "gamaka" : 9
  }, {
    "isTrailer" : false,
    "note" : "S",
    "duration" : "QUADRUPLE",
    "octave" : "BASE",
    "gamaka" : -1
  }, {
    "isTrailer" : true
  }, {
    "isTrailer" : true
  }, {
    "isTrailer" : true
  }, {
    "isTrailer" : true
  }, {
    "isTrailer" : true
  }, {
    "isTrailer" : true
  }, {
    "isTrailer" : true
  }, {
    "isTrailer" : true
  }, {
    "isTrailer" : true
  } ]
}