{
  "v" : "1.0",
  "raaga" : "29",
  "shrutiOctave" : "S4",
  "shruti" : "B",
  "tempo" : 160,
  "swaras" : [ {
    "isTrailer" : false,
    "note" : "S",
    "duration" : "FULL",
    "octave" : "BASE",
    "gamaka" : -1
  }, {
    "isTrailer" : false,
    "note" : "P",
    "duration" : "FULL",
    "octave" : "BASE",
    "gamaka" : -1
  }, {
    "isTrailer" : false,
    "note" : "P",
    "duration" : "FULL",
    "octave" : "BASE",
    "gamaka" : -1
  }, {
    "isTrailer" : false,
    "note" : "P",
    "duration" : "FULL",
    "octave" : "BASE",
    "gamaka" : -1
  }, {
    "isTrailer" : false,
    "note" : "P",
    "duration" : "ONEANDHALF",
    "octave" : "BASE",
    "gamaka" : -1
  }, {
    "isTrailer" : false,
    "note" : "D",
    "duration" : "HALF",
    "octave" : "BASE",
    "gamaka" : -1
  }, {
    "isTrailer" : false,
    "note" : "P",
    "duration" : "HALF",
    "octave" : "BASE",
    "gamaka" : -1
  }, {
    "isTrailer" : false,
    "note" : "D",
    "duration" : "HALF",
    "octave" : "BASE",
    "gamaka" : -1
  }, {
    "isTrailer" : false,
    "note" : "P",
    "duration" : "HALF",
    "octave" : "BASE",
    "gamaka" : -1
  }, {
    "isTrailer" : false,
    "note" : "M",
    "duration" : "HALF",
    "octave" : "BASE",
    "gamaka" : -1
  }, {
    "isTrailer" : true
  }, {
    "isTrailer" : false,
    "note" : "R",
    "duration" : "FULL",
    "octave" : "BASE",
    "gamaka" : -1
  }, {
    "isTrailer" : false,
    "note" : "P",
    "duration" : "HALF",
    "octave" : "BASE",
    "gamaka" : -1
  }, {
    "isTrailer" : false,
    "note" : "M",
    "duration" : "HALF",
    "octave" : "BASE",
    "gamaka" : -1
  }, {
    "isTrailer" : false,
    "note" : "M",
    "duration" : "FULL",
    "octave" : "BASE",
    "gamaka" : -1
  }, {
    "isTrailer" : false,
    "note" : "M",
    "duration" : "FULL",
    "octave" : "BASE",
    "gamaka" : -1
  }, {
    "isTrailer" : false,
    "note" : "R",
    "duration" : "ONEANDHALF",
    "octave" : "BASE",
    "gamaka" : -1
  }, {
    "isTrailer" : false,
    "note" : "REST",
    "duration" : "FULL"
  }, {
    "isTrailer" : false,
    "note" : "R",
    "duration" : "FULL",
    "octave" : "BASE",
    "gamaka" : -1
  }, {
    "isTrailer" : false,
    "note" : "R",
    "duration" : "HALF",
    "octave" : "BASE",
    "gamaka" : -1
  }, {
    "isTrailer" : true
  }, {
    "isTrailer" : false,
    "note" : "P",
    "duration" : "HALF",
    "octave" : "BASE",
    "gamaka" : -1
  }, {
    "isTrailer" : false,
    "note" : "P",
    "duration" : "HALF",
    "octave" : "BASE",
    "gamaka" : -1
  }, {
    "isTrailer" : false,
    "note" : "M",
    "duration" : "HALF",
    "octave" : "BASE",
    "gamaka" : -1
  }, {
    "isTrailer" : false,
    "note" : "M",
    "duration" : "HALF",
    "octave" : "BASE",
    "gamaka" : -1
  }, {
    "isTrailer" : false,
    "note" : "R",
    "duration" : "HALF",
    "octave" : "BASE",
    "gamaka" : -1
  }, {
    "isTrailer" : false,
    "note" : "R",
    "duration" : "HALF",
    "octave" : "BASE",
    "gamaka" : -1
  }, {
    "isTrailer" : false,
    "note" : "S",
    "duration" : "HALF",
    "octave" : "BASE",
    "gamaka" : -1
  }, {
    "isTrailer" : false,
    "note" : "N",
    "duration" : "ONEANDHALF",
    "octave" : "DOWN1",
    "gamaka" : -1
  }, {
    "isTrailer" : false,
    "note" : "S",
    "duration" : "HALF",
    "octave" : "BASE",
    "gamaka" : -1
  }, {
    "isTrailer" : false,
    "note" : "N",
    "duration" : "HALF",
    "octave" : "DOWN1",
    "gamaka" : -1
  }, {
    "isTrailer" : false,
    "note" : "S",
    "duration" : "HALF",
    "octave" : "BASE",
    "gamaka" : -1
  }, {
    "isTrailer" : false,
    "note" : "R",
    "duration" : "ONEANDHALF",
    "octave" : "BASE",
    "gamaka" : -1
  }, {
    "isTrailer" : true
  }, {
    "isTrailer" : false,
    "note" : "REST",
    "duration" : "FULL"
  }, {
    "isTrailer" : false,
    "note" : "N",
    "duration" : "HALF",
    "octave" : "DOWN1",
    "gamaka" : -1
  }, {
    "isTrailer" : false,
    "note" : "S",
    "duration" : "HALF",
    "octave" : "BASE",
    "gamaka" : -1
  }, {
    "isTrailer" : false,
    "note" : "R",
    "duration" : "DOUBLE",
    "octave" : "BASE",
    "gamaka" : -1
  }, {
    "isTrailer" : false,
    "note" : "REST",
    "duration" : "HALF"
  }, {
    "isTrailer" : false,
    "note" : "S",
    "duration" : "HALF",
    "octave" : "BASE",
    "gamaka" : -1
  }, {
    "isTrailer" : false,
    "note" : "N",
    "duration" : "FULL",
    "octave" : "DOWN1",
    "gamaka" : -1
  }, {
    "isTrailer" : false,
    "note" : "N",
    "duration" : "HALF",
    "octave" : "DOWN1",
    "gamaka" : -1
  }, {
    "isTrailer" : false,
    "note" : "S",
    "duration" : "HALF",
    "octave" : "BASE",
    "gamaka" : -1
  }, {
    "isTrailer" : false,
    "note" : "R",
    "duration" : "DOUBLE",
    "octave" : "BASE",
    "gamaka" : -1
  }, {
    "isTrailer" : false,
    "note" : "REST",
    "duration" : "HALF"
  }, {
    "isTrailer" : true
  }, {
    "isTrailer" : false,
    "note" : "S",
    "duration" : "HALF",
    "octave" : "BASE",
    "gamaka" : -1
  }, {
    "isTrailer" : false,
    "note" : "N",
    "duration" : "HALF",
    "octave" : "DOWN1",
    "gamaka" : -1
  }, {
    "isTrailer" : false,
    "note" : "S",
    "duration" : "FULL",
    "octave" : "BASE",
    "gamaka" : -1
  }, {
    "isTrailer" : false,
    "note" : "P",
    "duration" : "ONEANDHALF",
    "octave" : "BASE",
    "gamaka" : -1
  }, {
    "isTrailer" : false,
    "note" : "P",
    "duration" : "HALF",
    "octave" : "BASE",
    "gamaka" : -1
  }, {
    "isTrailer" : false,
    "note" : "P",
    "duration" : "HALF",
    "octave" : "BASE",
    "gamaka" : -1
  }, {
    "isTrailer" : false,
    "note" : "M",
    "duration" : "HALF",
    "octave" : "BASE",
    "gamaka" : -1
  }, {
    "isTrailer" : false,
    "note" : "P",
    "duration" : "FULL",
    "octave" : "BASE",
    "gamaka" : -1
  }, {
    "isTrailer" : false,
    "note" : "M",
    "duration" : "HALF",
    "octave" : "BASE",
    "gamaka" : -1
  }, {
    "isTrailer" : false,
    "note" : "R",
    "duration" : "HALF",
    "octave" : "BASE",
    "gamaka" : -1
  }, {
    "isTrailer" : false,
    "note" : "S",
    "duration" : "HALF",
    "octave" : "BASE",
    "gamaka" : -1
  }, {
    "isTrailer" : false,
    "note" : "S",
    "duration" : "ONEANDHALF",
    "octave" : "BASE",
    "gamaka" : -1
  }, {
    "isTrailer" : true
  }, {
    "isTrailer" : true
  }, {
    "isTrailer" : false,
    "note" : "S",
    "duration" : "HALF",
    "octave" : "BASE",
    "gamaka" : -1
  }, {
    "isTrailer" : false,
    "note" : "S",
    "duration" : "HALF",
    "octave" : "BASE",
    "gamaka" : -1
  }, {
    "isTrailer" : false,
    "note" : "P",
    "duration" : "FULL",
    "octave" : "BASE",
    "gamaka" : -1
  }, {
    "isTrailer" : false,
    "note" : "P",
    "duration" : "FULL",
    "octave" : "BASE",
    "gamaka" : -1
  }, {
    "isTrailer" : false,
    "note" : "P",
    "duration" : "FULL",
    "octave" : "BASE",
    "gamaka" : -1
  }, {
    "isTrailer" : false,
    "note" : "P",
    "duration" : "DOUBLE",
    "octave" : "BASE",
    "gamaka" : 19
  }, {
    "isTrailer" : false,
    "note" : "P",
    "duration" : "HALF",
    "octave" : "BASE",
    "gamaka" : -1
  }, {
    "isTrailer" : false,
    "note" : "D",
    "duration" : "HALF",
    "octave" : "BASE",
    "gamaka" : -1
  }, {
    "isTrailer" : false,
    "note" : "P",
    "duration" : "HALF",
    "octave" : "BASE",
    "gamaka" : -1
  }, {
    "isTrailer" : false,
    "note" : "M",
    "duration" : "HALF",
    "octave" : "BASE",
    "gamaka" : -1
  }, {
    "isTrailer" : true
  }, {
    "isTrailer" : false,
    "note" : "R",
    "duration" : "FULL",
    "octave" : "BASE",
    "gamaka" : -1
  }, {
    "isTrailer" : false,
    "note" : "P",
    "duration" : "HALF",
    "octave" : "BASE",
    "gamaka" : -1
  }, {
    "isTrailer" : false,
    "note" : "M",
    "duration" : "HALF",
    "octave" : "BASE",
    "gamaka" : -1
  }, {
    "isTrailer" : false,
    "note" : "M",
    "duration" : "FULL",
    "octave" : "BASE",
    "gamaka" : 36
  }, {
    "isTrailer" : false,
    "note" : "M",
    "duration" : "FULL",
    "octave" : "BASE",
    "gamaka" : -1
  }, {
    "isTrailer" : false,
    "note" : "R",
    "duration" : "DOUBLE",
    "octave" : "BASE",
    "gamaka" : 4
  }, {
    "isTrailer" : false,
    "note" : "R",
    "duration" : "FULL",
    "octave" : "BASE",
    "gamaka" : -1
  }, {
    "isTrailer" : false,
    "note" : "P",
    "duration" : "FULL",
    "octave" : "BASE",
    "gamaka" : 24
  }, {
    "isTrailer" : true
  }, {
    "isTrailer" : false,
    "note" : "P",
    "duration" : "HALF",
    "octave" : "BASE",
    "gamaka" : -1
  }, {
    "isTrailer" : false,
    "note" : "M",
    "duration" : "HALF",
    "octave" : "BASE",
    "gamaka" : -1
  }, {
    "isTrailer" : false,
    "note" : "R",
    "duration" : "FULL",
    "octave" : "BASE",
    "gamaka" : 11
  }, {
    "isTrailer" : false,
    "note" : "R",
    "duration" : "HALF",
    "octave" : "BASE",
    "gamaka" : -1
  }, {
    "isTrailer" : false,
    "note" : "S",
    "duration" : "HALF",
    "octave" : "BASE",
    "gamaka" : -1
  }, {
    "isTrailer" : false,
    "note" : "N",
    "duration" : "DOUBLE",
    "octave" : "DOWN1",
    "gamaka" : 28
  }, {
    "isTrailer" : false,
    "note" : "S",
    "duration" : "HALF",
    "octave" : "BASE",
    "gamaka" : -1
  }, {
    "isTrailer" : false,
    "note" : "N",
    "duration" : "HALF",
    "octave" : "DOWN1",
    "gamaka" : 29
  }, {
    "isTrailer" : false,
    "note" : "S",
    "duration" : "HALF",
    "octave" : "BASE",
    "gamaka" : -1
  }, {
    "isTrailer" : false,
    "note" : "R",
    "duration" : "FULL",
    "octave" : "BASE",
    "gamaka" : -1
  }, {
    "isTrailer" : false,
    "note" : "R",
    "duration" : "DOUBLE",
    "octave" : "BASE",
    "gamaka" : 50
  }, {
    "isTrailer" : true
  }, {
    "isTrailer" : false,
    "note" : "REST",
    "duration" : "FULL"
  }, {
    "isTrailer" : false,
    "note" : "N",
    "duration" : "FULL",
    "octave" : "DOWN1",
    "gamaka" : 29
  }, {
    "isTrailer" : false,
    "note" : "R",
    "duration" : "DOUBLE",
    "octave" : "BASE",
    "gamaka" : -1
  }, {
    "isTrailer" : false,
    "note" : "REST",
    "duration" : "HALF"
  }, {
    "isTrailer" : false,
    "note" : "S",
    "duration" : "HALF",
    "octave" : "BASE",
    "gamaka" : -1
  }, {
    "isTrailer" : false,
    "note" : "N",
    "duration" : "FULL",
    "octave" : "DOWN1",
    "gamaka" : 29
  }, {
    "isTrailer" : false,
    "note" : "R",
    "duration" : "DOUBLE",
    "octave" : "BASE",
    "gamaka" : -1
  }, {
    "isTrailer" : false,
    "note" : "REST",
    "duration" : "HALF"
  }, {
    "isTrailer" : true
  }, {
    "isTrailer" : false,
    "note" : "S",
    "duration" : "HALF",
    "octave" : "BASE",
    "gamaka" : -1
  }, {
    "isTrailer" : false,
    "note" : "N",
    "duration" : "FULL",
    "octave" : "DOWN1",
    "gamaka" : 29
  }, {
    "isTrailer" : false,
    "note" : "P",
    "duration" : "ONEANDHALF",
    "octave" : "BASE",
    "gamaka" : 23
  }, {
    "isTrailer" : false,
    "note" : "P",
    "duration" : "HALF",
    "octave" : "BASE",
    "gamaka" : -1
  }, {
    "isTrailer" : false,
    "note" : "P",
    "duration" : "HALF",
    "octave" : "BASE",
    "gamaka" : -1
  }, {
    "isTrailer" : false,
    "note" : "P",
    "duration" : "FULL",
    "octave" : "BASE",
    "gamaka" : 36
  }, {
    "isTrailer" : false,
    "note" : "M",
    "duration" : "HALF",
    "octave" : "BASE",
    "gamaka" : -1
  }, {
    "isTrailer" : false,
    "note" : "S",
    "duration" : "FULL",
    "octave" : "BASE",
    "gamaka" : 2
  }, {
    "isTrailer" : false,
    "note" : "S",
    "duration" : "HALF",
    "octave" : "BASE",
    "gamaka" : -1
  }, {
    "isTrailer" : false,
    "note" : "S",
    "duration" : "ONEANDHALF",
    "octave" : "BASE",
    "gamaka" : -1
  }, {
    "isTrailer" : true
  }, {
    "isTrailer" : true
  }, {
    "isTrailer" : true
  }, {
    "isTrailer" : true
  }, {
    "isTrailer" : true
  }, {
    "isTrailer" : true
  }, {
    "isTrailer" : true
  }, {
    "isTrailer" : true
  }, {
    "isTrailer" : true
  } ]
}