{
  "v" : "1.0",
  "raaga" : "28",
  "shrutiOctave" : "S3",
  "shruti" : "F1",
  "tempo" : 140,
  "swaras" : [ {
    "isTrailer" : false,
    "note" : "S",
    "duration" : "FULL",
    "octave" : "BASE",
    "gamaka" : -1
  }, {
    "isTrailer" : false,
    "note" : "REST",
    "duration" : "HALF"
  }, {
    "isTrailer" : false,
    "note" : "REST",
    "duration" : "HALF"
  }, {
    "isTrailer" : false,
    "note" : "R",
    "duration" : "FULL",
    "octave" : "BASE",
    "gamaka" : -1
  }, {
    "isTrailer" : true
  }, {
    "isTrailer" : false,
    "note" : "S",
    "duration" : "FULL",
    "octave" : "BASE",
    "gamaka" : -1
  }, {
    "isTrailer" : false,
    "note" : "R",
    "duration" : "FULL",
    "octave" : "BASE",
    "gamaka" : -1
  }, {
    "isTrailer" : false,
    "note" : "G",
    "duration" : "FULL",
    "octave" : "BASE",
    "gamaka" : -1
  }, {
    "isTrailer" : false,
    "note" : "M",
    "duration" : "FULL",
    "octave" : "BASE",
    "gamaka" : -1
  }, {
    "isTrailer" : false,
    "note" : "S",
    "duration" : "FULL",
    "octave" : "BASE",
    "gamaka" : -1
  }, {
    "isTrailer" : false,
    "note" : "M",
    "duration" : "FULL",
    "octave" : "BASE",
    "gamaka" : -1
  }, {
    "isTrailer" : false,
    "note" : "S",
    "duration" : "FULL",
    "octave" : "BASE",
    "gamaka" : -1
  }, {
    "isTrailer" : false,
    "note" : "M",
    "duration" : "FULL",
    "octave" : "BASE",
    "gamaka" : -1
  }, {
    "isTrailer" : true
  }, {
    "isTrailer" : false,
    "note" : "REST",
    "duration" : "HALF"
  }, {
    "isTrailer" : false,
    "note" : "REST",
    "duration" : "HALF"
  }, {
    "isTrailer" : false,
    "note" : "REST",
    "duration" : "HALF"
  }, {
    "isTrailer" : false,
    "note" : "REST",
    "duration" : "HALF"
  }, {
    "isTrailer" : true
  }, {
    "isTrailer" : false,
    "note" : "S",
    "duration" : "QUADRUPLE",
    "octave" : "UP1",
    "gamaka" : -1
  }, {
    "isTrailer" : false,
    "note" : "N",
    "duration" : "FULL",
    "octave" : "BASE",
    "gamaka" : -1
  }, {
    "isTrailer" : false,
    "note" : "S",
    "duration" : "FULL",
    "octave" : "UP1",
    "gamaka" : -1
  }, {
    "isTrailer" : false,
    "note" : "D",
    "duration" : "FULL",
    "octave" : "BASE",
    "gamaka" : 8
  }, {
    "isTrailer" : false,
    "note" : "N",
    "duration" : "FULL",
    "octave" : "BASE",
    "gamaka" : -1
  }, {
    "isTrailer" : false,
    "note" : "P",
    "duration" : "DOUBLE",
    "octave" : "BASE",
    "gamaka" : -1
  }, {
    "isTrailer" : false,
    "note" : "M",
    "duration" : "FULL",
    "octave" : "BASE",
    "gamaka" : 27
  }, {
    "isTrailer" : false,
    "note" : "P",
    "duration" : "FULL",
    "octave" : "BASE",
    "gamaka" : -1
  }, {
    "isTrailer" : false,
    "note" : "G",
    "duration" : "DOUBLE",
    "octave" : "BASE",
    "gamaka" : -1
  }, {
    "isTrailer" : false,
    "note" : "M",
    "duration" : "DOUBLE",
    "octave" : "BASE",
    "gamaka" : 13
  }, {
    "isTrailer" : true
  }, {
    "isTrailer" : false,
    "note" : "P",
    "duration" : "DOUBLE",
    "octave" : "BASE",
    "gamaka" : -1
  }, {
    "isTrailer" : false,
    "note" : "D",
    "duration" : "FULL",
    "octave" : "BASE",
    "gamaka" : 15
  }, {
    "isTrailer" : false,
    "note" : "N",
    "duration" : "FULL",
    "octave" : "BASE",
    "gamaka" : -1
  }, {
    "isTrailer" : false,
    "note" : "P",
    "duration" : "DOUBLE",
    "octave" : "BASE",
    "gamaka" : 43
  }, {
    "isTrailer" : false,
    "note" : "D",
    "duration" : "FULL",
    "octave" : "BASE",
    "gamaka" : 15
  }, {
    "isTrailer" : false,
    "note" : "N",
    "duration" : "FULL",
    "octave" : "BASE",
    "gamaka" : -1
  }, {
    "isTrailer" : false,
    "note" : "S",
    "duration" : "FULL",
    "octave" : "UP1",
    "gamaka" : -1
  }, {
    "isTrailer" : false,
    "note" : "R",
    "duration" : "FULL",
    "octave" : "UP1",
    "gamaka" : 15
  }, {
    "isTrailer" : false,
    "note" : "S",
    "duration" : "FULL",
    "octave" : "UP1",
    "gamaka" : -1
  }, {
    "isTrailer" : false,
    "note" : "N",
    "duration" : "FULL",
    "octave" : "BASE",
    "gamaka" : -1
  }, {
    "isTrailer" : false,
    "note" : "D",
    "duration" : "FULL",
    "octave" : "BASE",
    "gamaka" : 16
  }, {
    "isTrailer" : false,
    "note" : "P",
    "duration" : "FULL",
    "octave" : "BASE",
    "gamaka" : -1
  }, {
    "isTrailer" : false,
    "note" : "D",
    "duration" : "FULL",
    "octave" : "BASE",
    "gamaka" : 15
  }, {
    "isTrailer" : false,
    "note" : "N",
    "duration" : "FULL",
    "octave" : "BASE",
    "gamaka" : -1
  }, {
    "isTrailer" : true
  }, {
    "isTrailer" : false,
    "note" : "S",
    "duration" : "DOUBLE",
    "octave" : "UP1",
    "gamaka" : -1
  }, {
    "isTrailer" : false,
    "note" : "S",
    "duration" : "FULL",
    "octave" : "UP1",
    "gamaka" : -1
  }, {
    "isTrailer" : false,
    "note" : "D",
    "duration" : "FULL",
    "octave" : "BASE",
    "gamaka" : 16
  }, {
    "isTrailer" : false,
    "note" : "P",
    "duration" : "FULL",
    "octave" : "BASE",
    "gamaka" : -1
  }, {
    "isTrailer" : false,
    "note" : "M",
    "duration" : "FULL",
    "octave" : "BASE",
    "gamaka" : 12
  }, {
    "isTrailer" : false,
    "note" : "P",
    "duration" : "DOUBLE",
    "octave" : "BASE",
    "gamaka" : -1
  }, {
    "isTrailer" : false,
    "note" : "P",
    "duration" : "FULL",
    "octave" : "BASE",
    "gamaka" : -1
  }, {
    "isTrailer" : false,
    "note" : "M",
    "duration" : "FULL",
    "octave" : "BASE",
    "gamaka" : 17
  }, {
    "isTrailer" : false,
    "note" : "G",
    "duration" : "FULL",
    "octave" : "BASE",
    "gamaka" : -1
  }, {
    "isTrailer" : false,
    "note" : "R",
    "duration" : "FULL",
    "octave" : "BASE",
    "gamaka" : 30
  }, {
    "isTrailer" : false,
    "note" : "S",
    "duration" : "FULL",
    "octave" : "BASE",
    "gamaka" : -1
  }, {
    "isTrailer" : false,
    "note" : "R",
    "duration" : "FULL",
    "octave" : "BASE",
    "gamaka" : 15
  }, {
    "isTrailer" : false,
    "note" : "G",
    "duration" : "FULL",
    "octave" : "BASE",
    "gamaka" : -1
  }, {
    "isTrailer" : false,
    "note" : "S",
    "duration" : "FULL",
    "octave" : "BASE",
    "gamaka" : -1
  }, {
    "isTrailer" : true
  }, {
    "isTrailer" : false,
    "note" : "N",
    "duration" : "FULL",
    "octave" : "DOWN1",
    "gamaka" : -1
  }, {
    "isTrailer" : false,
    "note" : "P",
    "duration" : "FULL",
    "octave" : "DOWN1",
    "gamaka" : -1
  }, {
    "isTrailer" : false,
    "note" : "D",
    "duration" : "FULL",
    "octave" : "DOWN1",
    "gamaka" : 15
  }, {
    "isTrailer" : false,
    "note" : "N",
    "duration" : "FULL",
    "octave" : "DOWN1",
    "gamaka" : -1
  }, {
    "isTrailer" : false,
    "note" : "S",
    "duration" : "DOUBLE",
    "octave" : "BASE",
    "gamaka" : -1
  }, {
    "isTrailer" : false,
    "note" : "P",
    "duration" : "FULL",
    "octave" : "BASE",
    "gamaka" : -1
  }, {
    "isTrailer" : false,
    "note" : "M",
    "duration" : "FULL",
    "octave" : "BASE",
    "gamaka" : -1
  }, {
    "isTrailer" : false,
    "note" : "G",
    "duration" : "FULL",
    "octave" : "BASE",
    "gamaka" : -1
  }, {
    "isTrailer" : false,
    "note" : "R",
    "duration" : "FULL",
    "octave" : "BASE",
    "gamaka" : 20
  }, {
    "isTrailer" : false,
    "note" : "G",
    "duration" : "FULL",
    "octave" : "BASE",
    "gamaka" : -1
  }, {
    "isTrailer" : false,
    "note" : "M",
    "duration" : "FULL",
    "octave" : "BASE",
    "gamaka" : 39
  }, {
    "isTrailer" : false,
    "note" : "P",
    "duration" : "DOUBLE",
    "octave" : "BASE",
    "gamaka" : -1
  }, {
    "isTrailer" : false,
    "note" : "D",
    "duration" : "FULL",
    "octave" : "BASE",
    "gamaka" : 15
  }, {
    "isTrailer" : false,
    "note" : "N",
    "duration" : "FULL",
    "octave" : "BASE",
    "gamaka" : -1
  }, {
    "isTrailer" : true
  }, {
    "isTrailer" : true
  }, {
    "isTrailer" : false,
    "note" : "S",
    "duration" : "DOUBLE",
    "octave" : "BASE",
    "gamaka" : -1
  }, {
    "isTrailer" : false,
    "note" : "D",
    "duration" : "FULL",
    "octave" : "BASE",
    "gamaka" : 9
  }, {
    "isTrailer" : false,
    "note" : "D",
    "duration" : "FULL",
    "octave" : "BASE",
    "gamaka" : -1
  }, {
    "isTrailer" : false,
    "note" : "P",
    "duration" : "FULL",
    "octave" : "BASE",
    "gamaka" : -1
  }, {
    "isTrailer" : false,
    "note" : "M",
    "duration" : "FULL",
    "octave" : "BASE",
    "gamaka" : 21
  }, {
    "isTrailer" : false,
    "note" : "D",
    "duration" : "FULL",
    "octave" : "BASE",
    "gamaka" : -1
  }, {
    "isTrailer" : false,
    "note" : "P",
    "duration" : "DOUBLE",
    "octave" : "BASE",
    "gamaka" : -1
  }, {
    "isTrailer" : false,
    "note" : "M",
    "duration" : "FULL",
    "octave" : "BASE",
    "gamaka" : 20
  }, {
    "isTrailer" : false,
    "note" : "G",
    "duration" : "FULL",
    "octave" : "BASE",
    "gamaka" : -1
  }, {
    "isTrailer" : false,
    "note" : "P",
    "duration" : "FULL",
    "octave" : "BASE",
    "gamaka" : -1
  }, {
    "isTrailer" : false,
    "note" : "G",
    "duration" : "DOUBLE",
    "octave" : "BASE",
    "gamaka" : -1
  }, {
    "isTrailer" : false,
    "note" : "M",
    "duration" : "FULL",
    "octave" : "BASE",
    "gamaka" : -1
  }, {
    "isTrailer" : false,
    "note" : "R",
    "duration" : "FULL",
    "octave" : "BASE",
    "gamaka" : 20
  }, {
    "isTrailer" : true
  }, {
    "isTrailer" : false,
    "note" : "G",
    "duration" : "FULL",
    "octave" : "BASE",
    "gamaka" : -1
  }, {
    "isTrailer" : false,
    "note" : "M",
    "duration" : "FULL",
    "octave" : "BASE",
    "gamaka" : 27
  }, {
    "isTrailer" : false,
    "note" : "P",
    "duration" : "FULL",
    "octave" : "BASE",
    "gamaka" : -1
  }, {
    "isTrailer" : false,
    "note" : "D",
    "duration" : "FULL",
    "octave" : "BASE",
    "gamaka" : 15
  }, {
    "isTrailer" : false,
    "note" : "D",
    "duration" : "FULL",
    "octave" : "BASE",
    "gamaka" : 40
  }, {
    "isTrailer" : false,
    "note" : "P",
    "duration" : "FULL",
    "octave" : "BASE",
    "gamaka" : -1
  }, {
    "isTrailer" : false,
    "note" : "M",
    "duration" : "FULL",
    "octave" : "BASE",
    "gamaka" : 12
  }, {
    "isTrailer" : false,
    "note" : "P",
    "duration" : "FULL",
    "octave" : "BASE",
    "gamaka" : -1
  }, {
    "isTrailer" : false,
    "note" : "D",
    "duration" : "FULL",
    "octave" : "BASE",
    "gamaka" : 15
  }, {
    "isTrailer" : false,
    "note" : "N",
    "duration" : "FULL",
    "octave" : "BASE",
    "gamaka" : -1
  }, {
    "isTrailer" : false,
    "note" : "S",
    "duration" : "FULL",
    "octave" : "UP1",
    "gamaka" : -1
  }, {
    "isTrailer" : false,
    "note" : "N",
    "duration" : "FULL",
    "octave" : "BASE",
    "gamaka" : -1
  }, {
    "isTrailer" : false,
    "note" : "S",
    "duration" : "DOUBLE",
    "octave" : "UP1",
    "gamaka" : -1
  }, {
    "isTrailer" : false,
    "note" : "R",
    "duration" : "FULL",
    "octave" : "UP1",
    "gamaka" : 15
  }, {
    "isTrailer" : false,
    "note" : "G",
    "duration" : "FULL",
    "octave" : "UP1",
    "gamaka" : -1
  }, {
    "isTrailer" : true
  }, {
    "isTrailer" : false,
    "note" : "M",
    "duration" : "FULL",
    "octave" : "UP1",
    "gamaka" : 17
  }, {
    "isTrailer" : false,
    "note" : "G",
    "duration" : "FULL",
    "octave" : "UP1",
    "gamaka" : -1
  }, {
    "isTrailer" : false,
    "note" : "R",
    "duration" : "FULL",
    "octave" : "UP1",
    "gamaka" : 30
  }, {
    "isTrailer" : false,
    "note" : "S",
    "duration" : "FULL",
    "octave" : "UP1",
    "gamaka" : -1
  }, {
    "isTrailer" : false,
    "note" : "S",
    "duration" : "FULL",
    "octave" : "UP1",
    "gamaka" : -1
  }, {
    "isTrailer" : false,
    "note" : "R",
    "duration" : "FULL",
    "octave" : "UP1",
    "gamaka" : 15
  }, {
    "isTrailer" : false,
    "note" : "S",
    "duration" : "FULL",
    "octave" : "UP1",
    "gamaka" : -1
  }, {
    "isTrailer" : false,
    "note" : "N",
    "duration" : "FULL",
    "octave" : "BASE",
    "gamaka" : -1
  }, {
    "isTrailer" : false,
    "note" : "D",
    "duration" : "FULL",
    "octave" : "BASE",
    "gamaka" : -1
  }, {
    "isTrailer" : false,
    "note" : "P",
    "duration" : "FULL",
    "octave" : "BASE",
    "gamaka" : -1
  }, {
    "isTrailer" : false,
    "note" : "D",
    "duration" : "FULL",
    "octave" : "BASE",
    "gamaka" : 15
  }, {
    "isTrailer" : false,
    "note" : "N",
    "duration" : "FULL",
    "octave" : "BASE",
    "gamaka" : -1
  }, {
    "isTrailer" : false,
    "note" : "S",
    "duration" : "FULL",
    "octave" : "UP1",
    "gamaka" : -1
  }, {
    "isTrailer" : false,
    "note" : "R",
    "duration" : "FULL",
    "octave" : "UP1",
    "gamaka" : 1
  }, {
    "isTrailer" : false,
    "note" : "S",
    "duration" : "DOUBLE",
    "octave" : "UP1",
    "gamaka" : -1
  }, {
    "isTrailer" : true
  }, {
    "isTrailer" : false,
    "note" : "S",
    "duration" : "FULL",
    "octave" : "UP1",
    "gamaka" : -1
  }, {
    "isTrailer" : false,
    "note" : "D",
    "duration" : "FULL",
    "octave" : "BASE",
    "gamaka" : 30
  }, {
    "isTrailer" : false,
    "note" : "P",
    "duration" : "FULL",
    "octave" : "BASE",
    "gamaka" : -1
  }, {
    "isTrailer" : false,
    "note" : "P",
    "duration" : "DOUBLE",
    "octave" : "BASE",
    "gamaka" : -1
  }, {
    "isTrailer" : false,
    "note" : "M",
    "duration" : "FULL",
    "octave" : "BASE",
    "gamaka" : 17
  }, {
    "isTrailer" : false,
    "note" : "G",
    "duration" : "FULL",
    "octave" : "BASE",
    "gamaka" : -1
  }, {
    "isTrailer" : false,
    "note" : "R",
    "duration" : "FULL",
    "octave" : "BASE",
    "gamaka" : -1
  }, {
    "isTrailer" : false,
    "note" : "S",
    "duration" : "FULL",
    "octave" : "BASE",
    "gamaka" : -1
  }, {
    "isTrailer" : false,
    "note" : "M",
    "duration" : "FULL",
    "octave" : "BASE",
    "gamaka" : 24
  }, {
    "isTrailer" : false,
    "note" : "G",
    "duration" : "FULL",
    "octave" : "BASE",
    "gamaka" : -1
  }, {
    "isTrailer" : false,
    "note" : "M",
    "duration" : "FULL",
    "octave" : "BASE",
    "gamaka" : 1
  }, {
    "isTrailer" : false,
    "note" : "P",
    "duration" : "DOUBLE",
    "octave" : "BASE",
    "gamaka" : -1
  }, {
    "isTrailer" : false,
    "note" : "D",
    "duration" : "FULL",
    "octave" : "BASE",
    "gamaka" : 15
  }, {
    "isTrailer" : false,
    "note" : "N",
    "duration" : "FULL",
    "octave" : "BASE",
    "gamaka" : -1
  }, {
    "isTrailer" : true
  }, {
    "isTrailer" : true
  }, {
    "isTrailer" : false,
    "note" : "S",
    "duration" : "FULL",
    "octave" : "UP1",
    "gamaka" : -1
  }, {
    "isTrailer" : false,
    "note" : "R",
    "duration" : "FULL",
    "octave" : "UP1",
    "gamaka" : -1
  }, {
    "isTrailer" : false,
    "note" : "N",
    "duration" : "FULL",
    "octave" : "BASE",
    "gamaka" : 40
  }, {
    "isTrailer" : false,
    "note" : "S",
    "duration" : "FULL",
    "octave" : "UP1",
    "gamaka" : -1
  }, {
    "isTrailer" : false,
    "note" : "D",
    "duration" : "FULL",
    "octave" : "BASE",
    "gamaka" : 15
  }, {
    "isTrailer" : false,
    "note" : "N",
    "duration" : "FULL",
    "octave" : "BASE",
    "gamaka" : -1
  }, {
    "isTrailer" : false,
    "note" : "S",
    "duration" : "FULL",
    "octave" : "UP1",
    "gamaka" : -1
  }, {
    "isTrailer" : false,
    "note" : "P",
    "duration" : "FULL",
    "octave" : "BASE",
    "gamaka" : -1
  }, {
    "isTrailer" : false,
    "note" : "D",
    "duration" : "FULL",
    "octave" : "BASE",
    "gamaka" : 15
  }, {
    "isTrailer" : false,
    "note" : "N",
    "duration" : "FULL",
    "octave" : "BASE",
    "gamaka" : -1
  }, {
    "isTrailer" : false,
    "note" : "S",
    "duration" : "FULL",
    "octave" : "UP1",
    "gamaka" : -1
  }, {
    "isTrailer" : false,
    "note" : "D",
    "duration" : "FULL",
    "octave" : "BASE",
    "gamaka" : 16
  }, {
    "isTrailer" : false,
    "note" : "P",
    "duration" : "FULL",
    "octave" : "BASE",
    "gamaka" : -1
  }, {
    "isTrailer" : false,
    "note" : "M",
    "duration" : "FULL",
    "octave" : "BASE",
    "gamaka" : 12
  }, {
    "isTrailer" : false,
    "note" : "P",
    "duration" : "FULL",
    "octave" : "BASE",
    "gamaka" : -1
  }, {
    "isTrailer" : false,
    "note" : "D",
    "duration" : "FULL",
    "octave" : "BASE",
    "gamaka" : -1
  }, {
    "isTrailer" : true
  }, {
    "isTrailer" : false,
    "note" : "M",
    "duration" : "FULL",
    "octave" : "BASE",
    "gamaka" : 39
  }, {
    "isTrailer" : false,
    "note" : "P",
    "duration" : "FULL",
    "octave" : "BASE",
    "gamaka" : -1
  }, {
    "isTrailer" : false,
    "note" : "G",
    "duration" : "FULL",
    "octave" : "BASE",
    "gamaka" : -1
  }, {
    "isTrailer" : false,
    "note" : "M",
    "duration" : "FULL",
    "octave" : "BASE",
    "gamaka" : 27
  }, {
    "isTrailer" : false,
    "note" : "P",
    "duration" : "FULL",
    "octave" : "BASE",
    "gamaka" : -1
  }, {
    "isTrailer" : false,
    "note" : "R",
    "duration" : "FULL",
    "octave" : "BASE",
    "gamaka" : -1
  }, {
    "isTrailer" : false,
    "note" : "G",
    "duration" : "FULL",
    "octave" : "BASE",
    "gamaka" : -1
  }, {
    "isTrailer" : false,
    "note" : "M",
    "duration" : "FULL",
    "octave" : "BASE",
    "gamaka" : 17
  }, {
    "isTrailer" : false,
    "note" : "S",
    "duration" : "FULL",
    "octave" : "BASE",
    "gamaka" : -1
  }, {
    "isTrailer" : false,
    "note" : "R",
    "duration" : "FULL",
    "octave" : "BASE",
    "gamaka" : 15
  }, {
    "isTrailer" : false,
    "note" : "G",
    "duration" : "FULL",
    "octave" : "BASE",
    "gamaka" : -1
  }, {
    "isTrailer" : false,
    "note" : "M",
    "duration" : "FULL",
    "octave" : "BASE",
    "gamaka" : 1
  }, {
    "isTrailer" : false,
    "note" : "P",
    "duration" : "FULL",
    "octave" : "BASE",
    "gamaka" : -1
  }, {
    "isTrailer" : false,
    "note" : "D",
    "duration" : "FULL",
    "octave" : "BASE",
    "gamaka" : 15
  }, {
    "isTrailer" : false,
    "note" : "N",
    "duration" : "FULL",
    "octave" : "BASE",
    "gamaka" : -1
  }, {
    "isTrailer" : false,
    "note" : "S",
    "duration" : "FULL",
    "octave" : "UP1",
    "gamaka" : -1
  }, {
    "isTrailer" : true
  }, {
    "isTrailer" : false,
    "note" : "R",
    "duration" : "FULL",
    "octave" : "UP1",
    "gamaka" : 15
  }, {
    "isTrailer" : false,
    "note" : "G",
    "duration" : "FULL",
    "octave" : "UP1",
    "gamaka" : -1
  }, {
    "isTrailer" : false,
    "note" : "M",
    "duration" : "FULL",
    "octave" : "UP1",
    "gamaka" : 17
  }, {
    "isTrailer" : false,
    "note" : "G",
    "duration" : "FULL",
    "octave" : "UP1",
    "gamaka" : -1
  }, {
    "isTrailer" : false,
    "note" : "R",
    "duration" : "FULL",
    "octave" : "UP1",
    "gamaka" : -1
  }, {
    "isTrailer" : false,
    "note" : "G",
    "duration" : "FULL",
    "octave" : "UP1",
    "gamaka" : -1
  }, {
    "isTrailer" : false,
    "note" : "R",
    "duration" : "FULL",
    "octave" : "UP1",
    "gamaka" : 16
  }, {
    "isTrailer" : false,
    "note" : "S",
    "duration" : "FULL",
    "octave" : "UP1",
    "gamaka" : -1
  }, {
    "isTrailer" : false,
    "note" : "N",
    "duration" : "FULL",
    "octave" : "BASE",
    "gamaka" : -1
  }, {
    "isTrailer" : false,
    "note" : "P",
    "duration" : "FULL",
    "octave" : "BASE",
    "gamaka" : 20
  }, {
    "isTrailer" : false,
    "note" : "D",
    "duration" : "FULL",
    "octave" : "BASE",
    "gamaka" : 15
  }, {
    "isTrailer" : false,
    "note" : "N",
    "duration" : "FULL",
    "octave" : "BASE",
    "gamaka" : -1
  }, {
    "isTrailer" : false,
    "note" : "S",
    "duration" : "DOUBLE",
    "octave" : "UP1",
    "gamaka" : -1
  }, {
    "isTrailer" : false,
    "note" : "P",
    "duration" : "DOUBLE",
    "octave" : "BASE",
    "gamaka" : 4
  }, {
    "isTrailer" : true
  }, {
    "isTrailer" : false,
    "note" : "S",
    "duration" : "FULL",
    "octave" : "UP1",
    "gamaka" : -1
  }, {
    "isTrailer" : false,
    "note" : "N",
    "duration" : "FULL",
    "octave" : "BASE",
    "gamaka" : -1
  }, {
    "isTrailer" : false,
    "note" : "D",
    "duration" : "FULL",
    "octave" : "BASE",
    "gamaka" : 16
  }, {
    "isTrailer" : false,
    "note" : "P",
    "duration" : "DOUBLE",
    "octave" : "BASE",
    "gamaka" : 4
  }, {
    "isTrailer" : false,
    "note" : "M",
    "duration" : "FULL",
    "octave" : "BASE",
    "gamaka" : 17
  }, {
    "isTrailer" : false,
    "note" : "G",
    "duration" : "FULL",
    "octave" : "BASE",
    "gamaka" : -1
  }, {
    "isTrailer" : false,
    "note" : "R",
    "duration" : "FULL",
    "octave" : "BASE",
    "gamaka" : 20
  }, {
    "isTrailer" : false,
    "note" : "S",
    "duration" : "FULL",
    "octave" : "BASE",
    "gamaka" : -1
  }, {
    "isTrailer" : false,
    "note" : "R",
    "duration" : "DOUBLE",
    "octave" : "BASE",
    "gamaka" : 2
  }, {
    "isTrailer" : false,
    "note" : "G",
    "duration" : "FULL",
    "octave" : "BASE",
    "gamaka" : -1
  }, {
    "isTrailer" : false,
    "note" : "M",
    "duration" : "FULL",
    "octave" : "BASE",
    "gamaka" : 1
  }, {
    "isTrailer" : false,
    "note" : "P",
    "duration" : "FULL",
    "octave" : "BASE",
    "gamaka" : -1
  }, {
    "isTrailer" : false,
    "note" : "D",
    "duration" : "FULL",
    "octave" : "BASE",
    "gamaka" : 15
  }, {
    "isTrailer" : false,
    "note" : "N",
    "duration" : "FULL",
    "octave" : "BASE",
    "gamaka" : -1
  }, {
    "isTrailer" : true
  }, {
    "isTrailer" : true
  }, {
    "isTrailer" : false,
    "note" : "P",
    "duration" : "DOUBLE",
    "octave" : "BASE",
    "gamaka" : -1
  }, {
    "isTrailer" : false,
    "note" : "D",
    "duration" : "FULL",
    "octave" : "BASE",
    "gamaka" : 15
  }, {
    "isTrailer" : false,
    "note" : "N",
    "duration" : "FULL",
    "octave" : "BASE",
    "gamaka" : -1
  }, {
    "isTrailer" : false,
    "note" : "S",
    "duration" : "FULL",
    "octave" : "UP1",
    "gamaka" : -1
  }, {
    "isTrailer" : false,
    "note" : "S",
    "duration" : "FULL",
    "octave" : "UP1",
    "gamaka" : -1
  }, {
    "isTrailer" : false,
    "note" : "N",
    "duration" : "FULL",
    "octave" : "BASE",
    "gamaka" : -1
  }, {
    "isTrailer" : false,
    "note" : "D",
    "duration" : "FULL",
    "octave" : "BASE",
    "gamaka" : 16
  }, {
    "isTrailer" : false,
    "note" : "P",
    "duration" : "FULL",
    "octave" : "BASE",
    "gamaka" : 20
  }, {
    "isTrailer" : false,
    "note" : "M",
    "duration" : "FULL",
    "octave" : "BASE",
    "gamaka" : 20
  }, {
    "isTrailer" : false,
    "note" : "G",
    "duration" : "FULL",
    "octave" : "BASE",
    "gamaka" : -1
  }, {
    "isTrailer" : false,
    "note" : "R",
    "duration" : "FULL",
    "octave" : "BASE",
    "gamaka" : 16
  }, {
    "isTrailer" : false,
    "note" : "G",
    "duration" : "DOUBLE",
    "octave" : "BASE",
    "gamaka" : -1
  }, {
    "isTrailer" : false,
    "note" : "M",
    "duration" : "DOUBLE",
    "octave" : "BASE",
    "gamaka" : 13
  }, {
    "isTrailer" : true
  }, {
    "isTrailer" : false,
    "note" : "P",
    "duration" : "DOUBLE",
    "octave" : "BASE",
    "gamaka" : -1
  }, {
    "isTrailer" : false,
    "note" : "M",
    "duration" : "FULL",
    "octave" : "BASE",
    "gamaka" : 12
  }, {
    "isTrailer" : false,
    "note" : "D",
    "duration" : "DOUBLE",
    "octave" : "BASE",
    "gamaka" : -1
  }, {
    "isTrailer" : false,
    "note" : "P",
    "duration" : "FULL",
    "octave" : "BASE",
    "gamaka" : 20
  }, {
    "isTrailer" : false,
    "note" : "S",
    "duration" : "FULL",
    "octave" : "UP1",
    "gamaka" : -1
  }, {
    "isTrailer" : false,
    "note" : "N",
    "duration" : "FULL",
    "octave" : "BASE",
    "gamaka" : -1
  }, {
    "isTrailer" : false,
    "note" : "D",
    "duration" : "FULL",
    "octave" : "BASE",
    "gamaka" : 16
  }, {
    "isTrailer" : false,
    "note" : "P",
    "duration" : "FULL",
    "octave" : "BASE",
    "gamaka" : 20
  }, {
    "isTrailer" : false,
    "note" : "M",
    "duration" : "FULL",
    "octave" : "BASE",
    "gamaka" : 17
  }, {
    "isTrailer" : false,
    "note" : "G",
    "duration" : "FULL",
    "octave" : "BASE",
    "gamaka" : -1
  }, {
    "isTrailer" : false,
    "note" : "M",
    "duration" : "FULL",
    "octave" : "BASE",
    "gamaka" : 17
  }, {
    "isTrailer" : false,
    "note" : "R",
    "duration" : "FULL",
    "octave" : "BASE",
    "gamaka" : -1
  }, {
    "isTrailer" : false,
    "note" : "G",
    "duration" : "FULL",
    "octave" : "BASE",
    "gamaka" : -1
  }, {
    "isTrailer" : false,
    "note" : "M",
    "duration" : "FULL",
    "octave" : "BASE",
    "gamaka" : 1
  }, {
    "isTrailer" : true
  }, {
    "isTrailer" : true
  }, {
    "isTrailer" : false,
    "note" : "P",
    "duration" : "TRIPLE",
    "octave" : "BASE",
    "gamaka" : -1
  }, {
    "isTrailer" : false,
    "note" : "M",
    "duration" : "FULL",
    "octave" : "BASE",
    "gamaka" : 17
  }, {
    "isTrailer" : false,
    "note" : "M",
    "duration" : "DOUBLE",
    "octave" : "BASE",
    "gamaka" : -1
  }, {
    "isTrailer" : false,
    "note" : "P",
    "duration" : "TRIPLE",
    "octave" : "BASE",
    "gamaka" : -1
  }, {
    "isTrailer" : false,
    "note" : "G",
    "duration" : "DOUBLE",
    "octave" : "BASE",
    "gamaka" : -1
  }, {
    "isTrailer" : false,
    "note" : "M",
    "duration" : "DOUBLE",
    "octave" : "BASE",
    "gamaka" : 17
  }, {
    "isTrailer" : false,
    "note" : "R",
    "duration" : "DOUBLE",
    "octave" : "BASE",
    "gamaka" : 4
  }, {
    "isTrailer" : false,
    "note" : "G",
    "duration" : "FULL",
    "octave" : "BASE",
    "gamaka" : -1
  }, {
    "isTrailer" : true
  }, {
    "isTrailer" : false,
    "note" : "S",
    "duration" : "FULL",
    "octave" : "BASE",
    "gamaka" : 4
  }, {
    "isTrailer" : false,
    "note" : "S",
    "duration" : "DOUBLE",
    "octave" : "BASE",
    "gamaka" : -1
  }, {
    "isTrailer" : false,
    "note" : "R",
    "duration" : "FULL",
    "octave" : "BASE",
    "gamaka" : 2
  }, {
    "isTrailer" : false,
    "note" : "R",
    "duration" : "DOUBLE",
    "octave" : "BASE",
    "gamaka" : -1
  }, {
    "isTrailer" : false,
    "note" : "N",
    "duration" : "TRIPLE",
    "octave" : "DOWN1",
    "gamaka" : -1
  }, {
    "isTrailer" : false,
    "note" : "S",
    "duration" : "DOUBLE",
    "octave" : "BASE",
    "gamaka" : -1
  }, {
    "isTrailer" : false,
    "note" : "R",
    "duration" : "DOUBLE",
    "octave" : "BASE",
    "gamaka" : 15
  }, {
    "isTrailer" : false,
    "note" : "G",
    "duration" : "DOUBLE",
    "octave" : "BASE",
    "gamaka" : -1
  }, {
    "isTrailer" : false,
    "note" : "M",
    "duration" : "FULL",
    "octave" : "BASE",
    "gamaka" : 1
  }, {
    "isTrailer" : true
  }, {
    "isTrailer" : true
  }, {
    "isTrailer" : false,
    "note" : "P",
    "duration" : "DOUBLE",
    "octave" : "BASE",
    "gamaka" : -1
  }, {
    "isTrailer" : false,
    "note" : "D",
    "duration" : "FULL",
    "octave" : "BASE",
    "gamaka" : 15
  }, {
    "isTrailer" : false,
    "note" : "N",
    "duration" : "FULL",
    "octave" : "BASE",
    "gamaka" : -1
  }, {
    "isTrailer" : false,
    "note" : "S",
    "duration" : "FULL",
    "octave" : "UP1",
    "gamaka" : -1
  }, {
    "isTrailer" : false,
    "note" : "S",
    "duration" : "FULL",
    "octave" : "UP1",
    "gamaka" : -1
  }, {
    "isTrailer" : false,
    "note" : "N",
    "duration" : "FULL",
    "octave" : "BASE",
    "gamaka" : -1
  }, {
    "isTrailer" : false,
    "note" : "D",
    "duration" : "FULL",
    "octave" : "BASE",
    "gamaka" : 16
  }, {
    "isTrailer" : false,
    "note" : "P",
    "duration" : "FULL",
    "octave" : "BASE",
    "gamaka" : 20
  }, {
    "isTrailer" : false,
    "note" : "M",
    "duration" : "FULL",
    "octave" : "BASE",
    "gamaka" : 20
  }, {
    "isTrailer" : false,
    "note" : "G",
    "duration" : "FULL",
    "octave" : "BASE",
    "gamaka" : -1
  }, {
    "isTrailer" : false,
    "note" : "R",
    "duration" : "FULL",
    "octave" : "BASE",
    "gamaka" : 16
  }, {
    "isTrailer" : false,
    "note" : "G",
    "duration" : "DOUBLE",
    "octave" : "BASE",
    "gamaka" : -1
  }, {
    "isTrailer" : false,
    "note" : "M",
    "duration" : "DOUBLE",
    "octave" : "BASE",
    "gamaka" : 13
  }, {
    "isTrailer" : true
  }, {
    "isTrailer" : false,
    "note" : "P",
    "duration" : "DOUBLE",
    "octave" : "BASE",
    "gamaka" : -1
  }, {
    "isTrailer" : false,
    "note" : "M",
    "duration" : "FULL",
    "octave" : "BASE",
    "gamaka" : 12
  }, {
    "isTrailer" : false,
    "note" : "D",
    "duration" : "DOUBLE",
    "octave" : "BASE",
    "gamaka" : -1
  }, {
    "isTrailer" : false,
    "note" : "P",
    "duration" : "FULL",
    "octave" : "BASE",
    "gamaka" : 20
  }, {
    "isTrailer" : false,
    "note" : "S",
    "duration" : "FULL",
    "octave" : "UP1",
    "gamaka" : -1
  }, {
    "isTrailer" : false,
    "note" : "N",
    "duration" : "FULL",
    "octave" : "BASE",
    "gamaka" : -1
  }, {
    "isTrailer" : false,
    "note" : "D",
    "duration" : "FULL",
    "octave" : "BASE",
    "gamaka" : 16
  }, {
    "isTrailer" : false,
    "note" : "P",
    "duration" : "FULL",
    "octave" : "BASE",
    "gamaka" : 20
  }, {
    "isTrailer" : false,
    "note" : "M",
    "duration" : "FULL",
    "octave" : "BASE",
    "gamaka" : 17
  }, {
    "isTrailer" : false,
    "note" : "G",
    "duration" : "FULL",
    "octave" : "BASE",
    "gamaka" : -1
  }, {
    "isTrailer" : false,
    "note" : "M",
    "duration" : "FULL",
    "octave" : "BASE",
    "gamaka" : 17
  }, {
    "isTrailer" : false,
    "note" : "R",
    "duration" : "FULL",
    "octave" : "BASE",
    "gamaka" : -1
  }, {
    "isTrailer" : false,
    "note" : "G",
    "duration" : "FULL",
    "octave" : "BASE",
    "gamaka" : -1
  }, {
    "isTrailer" : false,
    "note" : "M",
    "duration" : "FULL",
    "octave" : "BASE",
    "gamaka" : 1
  }, {
    "isTrailer" : true
  }, {
    "isTrailer" : true
  }, {
    "isTrailer" : false,
    "note" : "P",
    "duration" : "FULL",
    "octave" : "BASE",
    "gamaka" : -1
  }, {
    "isTrailer" : false,
    "note" : "D",
    "duration" : "DOUBLE",
    "octave" : "BASE",
    "gamaka" : 25
  }, {
    "isTrailer" : false,
    "note" : "P",
    "duration" : "FULL",
    "octave" : "BASE",
    "gamaka" : -1
  }, {
    "isTrailer" : false,
    "note" : "M",
    "duration" : "FULL",
    "octave" : "BASE",
    "gamaka" : 17
  }, {
    "isTrailer" : false,
    "note" : "G",
    "duration" : "FULL",
    "octave" : "BASE",
    "gamaka" : -1
  }, {
    "isTrailer" : false,
    "note" : "M",
    "duration" : "FULL",
    "octave" : "BASE",
    "gamaka" : 1
  }, {
    "isTrailer" : false,
    "note" : "P",
    "duration" : "DOUBLE",
    "octave" : "BASE",
    "gamaka" : -1
  }, {
    "isTrailer" : false,
    "note" : "M",
    "duration" : "FULL",
    "octave" : "BASE",
    "gamaka" : 20
  }, {
    "isTrailer" : false,
    "note" : "G",
    "duration" : "FULL",
    "octave" : "BASE",
    "gamaka" : -1
  }, {
    "isTrailer" : false,
    "note" : "M",
    "duration" : "FULL",
    "octave" : "BASE",
    "gamaka" : 17
  }, {
    "isTrailer" : false,
    "note" : "R",
    "duration" : "FULL",
    "octave" : "BASE",
    "gamaka" : 20
  }, {
    "isTrailer" : false,
    "note" : "G",
    "duration" : "DOUBLE",
    "octave" : "BASE",
    "gamaka" : 25
  }, {
    "isTrailer" : false,
    "note" : "R",
    "duration" : "FULL",
    "octave" : "BASE",
    "gamaka" : 20
  }, {
    "isTrailer" : true
  }, {
    "isTrailer" : false,
    "note" : "S",
    "duration" : "FULL",
    "octave" : "BASE",
    "gamaka" : -1
  }, {
    "isTrailer" : false,
    "note" : "N",
    "duration" : "FULL",
    "octave" : "DOWN1",
    "gamaka" : -1
  }, {
    "isTrailer" : false,
    "note" : "D",
    "duration" : "FULL",
    "octave" : "DOWN1",
    "gamaka" : 20
  }, {
    "isTrailer" : false,
    "note" : "N",
    "duration" : "DOUBLE",
    "octave" : "DOWN1",
    "gamaka" : -1
  }, {
    "isTrailer" : false,
    "note" : "P",
    "duration" : "FULL",
    "octave" : "DOWN1",
    "gamaka" : -1
  }, {
    "isTrailer" : false,
    "note" : "D",
    "duration" : "FULL",
    "octave" : "DOWN1",
    "gamaka" : 15
  }, {
    "isTrailer" : false,
    "note" : "N",
    "duration" : "FULL",
    "octave" : "DOWN1",
    "gamaka" : -1
  }, {
    "isTrailer" : false,
    "note" : "S",
    "duration" : "FULL",
    "octave" : "BASE",
    "gamaka" : -1
  }, {
    "isTrailer" : false,
    "note" : "R",
    "duration" : "DOUBLE",
    "octave" : "BASE",
    "gamaka" : 15
  }, {
    "isTrailer" : false,
    "note" : "N",
    "duration" : "FULL",
    "octave" : "DOWN1",
    "gamaka" : -1
  }, {
    "isTrailer" : false,
    "note" : "S",
    "duration" : "FULL",
    "octave" : "BASE",
    "gamaka" : -1
  }, {
    "isTrailer" : false,
    "note" : "R",
    "duration" : "FULL",
    "octave" : "BASE",
    "gamaka" : 15
  }, {
    "isTrailer" : false,
    "note" : "G",
    "duration" : "FULL",
    "octave" : "BASE",
    "gamaka" : -1
  }, {
    "isTrailer" : false,
    "note" : "M",
    "duration" : "FULL",
    "octave" : "BASE",
    "gamaka" : 1
  }, {
    "isTrailer" : true
  }, {
    "isTrailer" : true
  }, {
    "isTrailer" : false,
    "note" : "P",
    "duration" : "DOUBLE",
    "octave" : "BASE",
    "gamaka" : -1
  }, {
    "isTrailer" : false,
    "note" : "D",
    "duration" : "FULL",
    "octave" : "BASE",
    "gamaka" : 15
  }, {
    "isTrailer" : false,
    "note" : "N",
    "duration" : "FULL",
    "octave" : "BASE",
    "gamaka" : -1
  }, {
    "isTrailer" : false,
    "note" : "S",
    "duration" : "FULL",
    "octave" : "UP1",
    "gamaka" : -1
  }, {
    "isTrailer" : false,
    "note" : "S",
    "duration" : "FULL",
    "octave" : "UP1",
    "gamaka" : -1
  }, {
    "isTrailer" : false,
    "note" : "N",
    "duration" : "FULL",
    "octave" : "BASE",
    "gamaka" : -1
  }, {
    "isTrailer" : false,
    "note" : "D",
    "duration" : "FULL",
    "octave" : "BASE",
    "gamaka" : 16
  }, {
    "isTrailer" : false,
    "note" : "P",
    "duration" : "FULL",
    "octave" : "BASE",
    "gamaka" : 20
  }, {
    "isTrailer" : false,
    "note" : "M",
    "duration" : "FULL",
    "octave" : "BASE",
    "gamaka" : 20
  }, {
    "isTrailer" : false,
    "note" : "G",
    "duration" : "FULL",
    "octave" : "BASE",
    "gamaka" : -1
  }, {
    "isTrailer" : false,
    "note" : "R",
    "duration" : "FULL",
    "octave" : "BASE",
    "gamaka" : 16
  }, {
    "isTrailer" : false,
    "note" : "G",
    "duration" : "DOUBLE",
    "octave" : "BASE",
    "gamaka" : -1
  }, {
    "isTrailer" : false,
    "note" : "M",
    "duration" : "DOUBLE",
    "octave" : "BASE",
    "gamaka" : 13
  }, {
    "isTrailer" : true
  }, {
    "isTrailer" : false,
    "note" : "P",
    "duration" : "DOUBLE",
    "octave" : "BASE",
    "gamaka" : -1
  }, {
    "isTrailer" : false,
    "note" : "M",
    "duration" : "FULL",
    "octave" : "BASE",
    "gamaka" : 12
  }, {
    "isTrailer" : false,
    "note" : "D",
    "duration" : "DOUBLE",
    "octave" : "BASE",
    "gamaka" : -1
  }, {
    "isTrailer" : false,
    "note" : "P",
    "duration" : "FULL",
    "octave" : "BASE",
    "gamaka" : 20
  }, {
    "isTrailer" : false,
    "note" : "S",
    "duration" : "FULL",
    "octave" : "UP1",
    "gamaka" : -1
  }, {
    "isTrailer" : false,
    "note" : "N",
    "duration" : "FULL",
    "octave" : "BASE",
    "gamaka" : -1
  }, {
    "isTrailer" : false,
    "note" : "D",
    "duration" : "FULL",
    "octave" : "BASE",
    "gamaka" : 16
  }, {
    "isTrailer" : false,
    "note" : "P",
    "duration" : "FULL",
    "octave" : "BASE",
    "gamaka" : 20
  }, {
    "isTrailer" : false,
    "note" : "M",
    "duration" : "FULL",
    "octave" : "BASE",
    "gamaka" : 17
  }, {
    "isTrailer" : false,
    "note" : "G",
    "duration" : "FULL",
    "octave" : "BASE",
    "gamaka" : -1
  }, {
    "isTrailer" : false,
    "note" : "M",
    "duration" : "FULL",
    "octave" : "BASE",
    "gamaka" : 17
  }, {
    "isTrailer" : false,
    "note" : "R",
    "duration" : "FULL",
    "octave" : "BASE",
    "gamaka" : -1
  }, {
    "isTrailer" : false,
    "note" : "G",
    "duration" : "FULL",
    "octave" : "BASE",
    "gamaka" : -1
  }, {
    "isTrailer" : false,
    "note" : "M",
    "duration" : "FULL",
    "octave" : "BASE",
    "gamaka" : 1
  }, {
    "isTrailer" : true
  }, {
    "isTrailer" : true
  }, {
    "isTrailer" : false,
    "note" : "M",
    "duration" : "DOUBLE",
    "octave" : "BASE",
    "gamaka" : 17
  }, {
    "isTrailer" : false,
    "note" : "D",
    "duration" : "FULL",
    "octave" : "BASE",
    "gamaka" : 24
  }, {
    "isTrailer" : false,
    "note" : "P",
    "duration" : "FULL",
    "octave" : "BASE",
    "gamaka" : -1
  }, {
    "isTrailer" : false,
    "note" : "M",
    "duration" : "FULL",
    "octave" : "BASE",
    "gamaka" : -1
  }, {
    "isTrailer" : false,
    "note" : "G",
    "duration" : "FULL",
    "octave" : "BASE",
    "gamaka" : -1
  }, {
    "isTrailer" : false,
    "note" : "M",
    "duration" : "DOUBLE",
    "octave" : "BASE",
    "gamaka" : 27
  }, {
    "isTrailer" : false,
    "note" : "P",
    "duration" : "FULL",
    "octave" : "BASE",
    "gamaka" : -1
  }, {
    "isTrailer" : false,
    "note" : "G",
    "duration" : "FULL",
    "octave" : "BASE",
    "gamaka" : -1
  }, {
    "isTrailer" : false,
    "note" : "M",
    "duration" : "FULL",
    "octave" : "BASE",
    "gamaka" : 17
  }, {
    "isTrailer" : false,
    "note" : "R",
    "duration" : "FULL",
    "octave" : "BASE",
    "gamaka" : 20
  }, {
    "isTrailer" : false,
    "note" : "G",
    "duration" : "FULL",
    "octave" : "BASE",
    "gamaka" : -1
  }, {
    "isTrailer" : false,
    "note" : "S",
    "duration" : "FULL",
    "octave" : "BASE",
    "gamaka" : 20
  }, {
    "isTrailer" : false,
    "note" : "S",
    "duration" : "FULL",
    "octave" : "BASE",
    "gamaka" : -1
  }, {
    "isTrailer" : false,
    "note" : "N",
    "duration" : "FULL",
    "octave" : "DOWN1",
    "gamaka" : -1
  }, {
    "isTrailer" : true
  }, {
    "isTrailer" : false,
    "note" : "S",
    "duration" : "FULL",
    "octave" : "BASE",
    "gamaka" : -1
  }, {
    "isTrailer" : false,
    "note" : "M",
    "duration" : "FULL",
    "octave" : "BASE",
    "gamaka" : 24
  }, {
    "isTrailer" : false,
    "note" : "G",
    "duration" : "FULL",
    "octave" : "BASE",
    "gamaka" : 16
  }, {
    "isTrailer" : false,
    "note" : "R",
    "duration" : "FULL",
    "octave" : "BASE",
    "gamaka" : 20
  }, {
    "isTrailer" : false,
    "note" : "S",
    "duration" : "FULL",
    "octave" : "BASE",
    "gamaka" : -1
  }, {
    "isTrailer" : false,
    "note" : "N",
    "duration" : "FULL",
    "octave" : "DOWN1",
    "gamaka" : -1
  }, {
    "isTrailer" : false,
    "note" : "D",
    "duration" : "FULL",
    "octave" : "DOWN1",
    "gamaka" : 20
  }, {
    "isTrailer" : false,
    "note" : "N",
    "duration" : "FULL",
    "octave" : "DOWN1",
    "gamaka" : -1
  }, {
    "isTrailer" : false,
    "note" : "S",
    "duration" : "FULL",
    "octave" : "BASE",
    "gamaka" : -1
  }, {
    "isTrailer" : false,
    "note" : "R",
    "duration" : "FULL",
    "octave" : "BASE",
    "gamaka" : 15
  }, {
    "isTrailer" : false,
    "note" : "G",
    "duration" : "FULL",
    "octave" : "BASE",
    "gamaka" : -1
  }, {
    "isTrailer" : false,
    "note" : "M",
    "duration" : "FULL",
    "octave" : "BASE",
    "gamaka" : 1
  }, {
    "isTrailer" : false,
    "note" : "P",
    "duration" : "DOUBLE",
    "octave" : "BASE",
    "gamaka" : -1
  }, {
    "isTrailer" : false,
    "note" : "G",
    "duration" : "FULL",
    "octave" : "BASE",
    "gamaka" : -1
  }, {
    "isTrailer" : false,
    "note" : "M",
    "duration" : "FULL",
    "octave" : "BASE",
    "gamaka" : 1
  }, {
    "isTrailer" : true
  }, {
    "isTrailer" : false,
    "note" : "P",
    "duration" : "FULL",
    "octave" : "BASE",
    "gamaka" : -1
  }, {
    "isTrailer" : false,
    "note" : "D",
    "duration" : "FULL",
    "octave" : "BASE",
    "gamaka" : 15
  }, {
    "isTrailer" : false,
    "note" : "N",
    "duration" : "FULL",
    "octave" : "BASE",
    "gamaka" : -1
  }, {
    "isTrailer" : false,
    "note" : "P",
    "duration" : "FULL",
    "octave" : "BASE",
    "gamaka" : -1
  }, {
    "isTrailer" : false,
    "note" : "D",
    "duration" : "FULL",
    "octave" : "BASE",
    "gamaka" : 15
  }, {
    "isTrailer" : false,
    "note" : "N",
    "duration" : "FULL",
    "octave" : "BASE",
    "gamaka" : -1
  }, {
    "isTrailer" : false,
    "note" : "S",
    "duration" : "FULL",
    "octave" : "UP1",
    "gamaka" : -1
  }, {
    "isTrailer" : false,
    "note" : "R",
    "duration" : "FULL",
    "octave" : "UP1",
    "gamaka" : -1
  }, {
    "isTrailer" : false,
    "note" : "S",
    "duration" : "FULL",
    "octave" : "UP1",
    "gamaka" : -1
  }, {
    "isTrailer" : false,
    "note" : "G",
    "duration" : "FULL",
    "octave" : "UP1",
    "gamaka" : -1
  }, {
    "isTrailer" : false,
    "note" : "R",
    "duration" : "DOUBLE",
    "octave" : "UP1",
    "gamaka" : 8
  }, {
    "isTrailer" : false,
    "note" : "S",
    "duration" : "FULL",
    "octave" : "UP1",
    "gamaka" : -1
  }, {
    "isTrailer" : false,
    "note" : "N",
    "duration" : "FULL",
    "octave" : "BASE",
    "gamaka" : -1
  }, {
    "isTrailer" : false,
    "note" : "D",
    "duration" : "FULL",
    "octave" : "BASE",
    "gamaka" : 20
  }, {
    "isTrailer" : false,
    "note" : "N",
    "duration" : "FULL",
    "octave" : "BASE",
    "gamaka" : -1
  }, {
    "isTrailer" : true
  }, {
    "isTrailer" : false,
    "note" : "S",
    "duration" : "DOUBLE",
    "octave" : "UP1",
    "gamaka" : -1
  }, {
    "isTrailer" : false,
    "note" : "R",
    "duration" : "FULL",
    "octave" : "UP1",
    "gamaka" : -1
  }, {
    "isTrailer" : false,
    "note" : "N",
    "duration" : "FULL",
    "octave" : "BASE",
    "gamaka" : 4
  }, {
    "isTrailer" : false,
    "note" : "D",
    "duration" : "FULL",
    "octave" : "BASE",
    "gamaka" : 16
  }, {
    "isTrailer" : false,
    "note" : "P",
    "duration" : "DOUBLE",
    "octave" : "BASE",
    "gamaka" : -1
  }, {
    "isTrailer" : false,
    "note" : "D",
    "duration" : "FULL",
    "octave" : "BASE",
    "gamaka" : -1
  }, {
    "isTrailer" : false,
    "note" : "M",
    "duration" : "FULL",
    "octave" : "BASE",
    "gamaka" : 16
  }, {
    "isTrailer" : false,
    "note" : "G",
    "duration" : "FULL",
    "octave" : "BASE",
    "gamaka" : 16
  }, {
    "isTrailer" : false,
    "note" : "R",
    "duration" : "FULL",
    "octave" : "BASE",
    "gamaka" : 16
  }, {
    "isTrailer" : false,
    "note" : "S",
    "duration" : "DOUBLE",
    "octave" : "BASE",
    "gamaka" : 4
  }, {
    "isTrailer" : false,
    "note" : "R",
    "duration" : "FULL",
    "octave" : "BASE",
    "gamaka" : 15
  }, {
    "isTrailer" : false,
    "note" : "G",
    "duration" : "FULL",
    "octave" : "BASE",
    "gamaka" : -1
  }, {
    "isTrailer" : false,
    "note" : "M",
    "duration" : "FULL",
    "octave" : "BASE",
    "gamaka" : 1
  }, {
    "isTrailer" : true
  }, {
    "isTrailer" : true
  }, {
    "isTrailer" : false,
    "note" : "P",
    "duration" : "DOUBLE",
    "octave" : "BASE",
    "gamaka" : -1
  }, {
    "isTrailer" : false,
    "note" : "D",
    "duration" : "FULL",
    "octave" : "BASE",
    "gamaka" : 15
  }, {
    "isTrailer" : false,
    "note" : "N",
    "duration" : "FULL",
    "octave" : "BASE",
    "gamaka" : -1
  }, {
    "isTrailer" : false,
    "note" : "S",
    "duration" : "FULL",
    "octave" : "UP1",
    "gamaka" : -1
  }, {
    "isTrailer" : false,
    "note" : "S",
    "duration" : "FULL",
    "octave" : "UP1",
    "gamaka" : -1
  }, {
    "isTrailer" : false,
    "note" : "N",
    "duration" : "FULL",
    "octave" : "BASE",
    "gamaka" : -1
  }, {
    "isTrailer" : false,
    "note" : "D",
    "duration" : "FULL",
    "octave" : "BASE",
    "gamaka" : 16
  }, {
    "isTrailer" : false,
    "note" : "P",
    "duration" : "FULL",
    "octave" : "BASE",
    "gamaka" : 20
  }, {
    "isTrailer" : false,
    "note" : "M",
    "duration" : "FULL",
    "octave" : "BASE",
    "gamaka" : 20
  }, {
    "isTrailer" : false,
    "note" : "G",
    "duration" : "FULL",
    "octave" : "BASE",
    "gamaka" : -1
  }, {
    "isTrailer" : false,
    "note" : "R",
    "duration" : "FULL",
    "octave" : "BASE",
    "gamaka" : 16
  }, {
    "isTrailer" : false,
    "note" : "G",
    "duration" : "DOUBLE",
    "octave" : "BASE",
    "gamaka" : -1
  }, {
    "isTrailer" : false,
    "note" : "M",
    "duration" : "DOUBLE",
    "octave" : "BASE",
    "gamaka" : 13
  }, {
    "isTrailer" : true
  }, {
    "isTrailer" : false,
    "note" : "P",
    "duration" : "DOUBLE",
    "octave" : "BASE",
    "gamaka" : -1
  }, {
    "isTrailer" : false,
    "note" : "M",
    "duration" : "FULL",
    "octave" : "BASE",
    "gamaka" : 12
  }, {
    "isTrailer" : false,
    "note" : "D",
    "duration" : "DOUBLE",
    "octave" : "BASE",
    "gamaka" : -1
  }, {
    "isTrailer" : false,
    "note" : "P",
    "duration" : "FULL",
    "octave" : "BASE",
    "gamaka" : 20
  }, {
    "isTrailer" : false,
    "note" : "S",
    "duration" : "FULL",
    "octave" : "UP1",
    "gamaka" : -1
  }, {
    "isTrailer" : false,
    "note" : "N",
    "duration" : "FULL",
    "octave" : "BASE",
    "gamaka" : -1
  }, {
    "isTrailer" : false,
    "note" : "D",
    "duration" : "FULL",
    "octave" : "BASE",
    "gamaka" : 16
  }, {
    "isTrailer" : false,
    "note" : "P",
    "duration" : "FULL",
    "octave" : "BASE",
    "gamaka" : 20
  }, {
    "isTrailer" : false,
    "note" : "M",
    "duration" : "FULL",
    "octave" : "BASE",
    "gamaka" : 17
  }, {
    "isTrailer" : false,
    "note" : "G",
    "duration" : "FULL",
    "octave" : "BASE",
    "gamaka" : -1
  }, {
    "isTrailer" : false,
    "note" : "M",
    "duration" : "FULL",
    "octave" : "BASE",
    "gamaka" : 17
  }, {
    "isTrailer" : false,
    "note" : "R",
    "duration" : "FULL",
    "octave" : "BASE",
    "gamaka" : -1
  }, {
    "isTrailer" : false,
    "note" : "G",
    "duration" : "FULL",
    "octave" : "BASE",
    "gamaka" : -1
  }, {
    "isTrailer" : false,
    "note" : "M",
    "duration" : "FULL",
    "octave" : "BASE",
    "gamaka" : 1
  }, {
    "isTrailer" : true
  }, {
    "isTrailer" : true
  }, {
    "isTrailer" : false,
    "note" : "P",
    "duration" : "DOUBLE",
    "octave" : "BASE",
    "gamaka" : -1
  }, {
    "isTrailer" : false,
    "note" : "M",
    "duration" : "FULL",
    "octave" : "BASE",
    "gamaka" : 20
  }, {
    "isTrailer" : false,
    "note" : "P",
    "duration" : "FULL",
    "octave" : "BASE",
    "gamaka" : -1
  }, {
    "isTrailer" : false,
    "note" : "G",
    "duration" : "FULL",
    "octave" : "BASE",
    "gamaka" : -1
  }, {
    "isTrailer" : false,
    "note" : "M",
    "duration" : "FULL",
    "octave" : "BASE",
    "gamaka" : 17
  }, {
    "isTrailer" : false,
    "note" : "R",
    "duration" : "FULL",
    "octave" : "BASE",
    "gamaka" : -1
  }, {
    "isTrailer" : false,
    "note" : "G",
    "duration" : "FULL",
    "octave" : "BASE",
    "gamaka" : 20
  }, {
    "isTrailer" : false,
    "note" : "S",
    "duration" : "DOUBLE",
    "octave" : "BASE",
    "gamaka" : 4
  }, {
    "isTrailer" : false,
    "note" : "M",
    "duration" : "FULL",
    "octave" : "BASE",
    "gamaka" : 24
  }, {
    "isTrailer" : false,
    "note" : "G",
    "duration" : "FULL",
    "octave" : "BASE",
    "gamaka" : -1
  }, {
    "isTrailer" : false,
    "note" : "R",
    "duration" : "FULL",
    "octave" : "BASE",
    "gamaka" : 20
  }, {
    "isTrailer" : false,
    "note" : "S",
    "duration" : "FULL",
    "octave" : "BASE",
    "gamaka" : -1
  }, {
    "isTrailer" : false,
    "note" : "N",
    "duration" : "FULL",
    "octave" : "DOWN1",
    "gamaka" : -1
  }, {
    "isTrailer" : false,
    "note" : "P",
    "duration" : "FULL",
    "octave" : "DOWN1",
    "gamaka" : -1
  }, {
    "isTrailer" : true
  }, {
    "isTrailer" : false,
    "note" : "D",
    "duration" : "DOUBLE",
    "octave" : "DOWN1",
    "gamaka" : -1
  }, {
    "isTrailer" : false,
    "note" : "N",
    "duration" : "FULL",
    "octave" : "DOWN1",
    "gamaka" : -1
  }, {
    "isTrailer" : false,
    "note" : "S",
    "duration" : "FULL",
    "octave" : "BASE",
    "gamaka" : -1
  }, {
    "isTrailer" : false,
    "note" : "R",
    "duration" : "FULL",
    "octave" : "BASE",
    "gamaka" : 16
  }, {
    "isTrailer" : false,
    "note" : "S",
    "duration" : "FULL",
    "octave" : "BASE",
    "gamaka" : -1
  }, {
    "isTrailer" : false,
    "note" : "N",
    "duration" : "DOUBLE",
    "octave" : "DOWN1",
    "gamaka" : 6
  }, {
    "isTrailer" : false,
    "note" : "S",
    "duration" : "FULL",
    "octave" : "BASE",
    "gamaka" : -1
  }, {
    "isTrailer" : false,
    "note" : "R",
    "duration" : "FULL",
    "octave" : "BASE",
    "gamaka" : 15
  }, {
    "isTrailer" : false,
    "note" : "G",
    "duration" : "FULL",
    "octave" : "BASE",
    "gamaka" : -1
  }, {
    "isTrailer" : false,
    "note" : "M",
    "duration" : "FULL",
    "octave" : "BASE",
    "gamaka" : 1
  }, {
    "isTrailer" : false,
    "note" : "P",
    "duration" : "DOUBLE",
    "octave" : "BASE",
    "gamaka" : -1
  }, {
    "isTrailer" : false,
    "note" : "D",
    "duration" : "FULL",
    "octave" : "BASE",
    "gamaka" : 16
  }, {
    "isTrailer" : false,
    "note" : "P",
    "duration" : "FULL",
    "octave" : "BASE",
    "gamaka" : 20
  }, {
    "isTrailer" : true
  }, {
    "isTrailer" : false,
    "note" : "S",
    "duration" : "DOUBLE",
    "octave" : "UP1",
    "gamaka" : -1
  }, {
    "isTrailer" : false,
    "note" : "N",
    "duration" : "FULL",
    "octave" : "BASE",
    "gamaka" : -1
  }, {
    "isTrailer" : false,
    "note" : "R",
    "duration" : "DOUBLE",
    "octave" : "UP1",
    "gamaka" : 25
  }, {
    "isTrailer" : false,
    "note" : "S",
    "duration" : "FULL",
    "octave" : "UP1",
    "gamaka" : -1
  }, {
    "isTrailer" : false,
    "note" : "M",
    "duration" : "FULL",
    "octave" : "UP1",
    "gamaka" : 24
  }, {
    "isTrailer" : false,
    "note" : "G",
    "duration" : "FULL",
    "octave" : "UP1",
    "gamaka" : -1
  }, {
    "isTrailer" : false,
    "note" : "R",
    "duration" : "FULL",
    "octave" : "UP1",
    "gamaka" : 20
  }, {
    "isTrailer" : false,
    "note" : "G",
    "duration" : "FULL",
    "octave" : "UP1",
    "gamaka" : -1
  }, {
    "isTrailer" : false,
    "note" : "S",
    "duration" : "DOUBLE",
    "octave" : "UP1",
    "gamaka" : 20
  }, {
    "isTrailer" : false,
    "note" : "N",
    "duration" : "FULL",
    "octave" : "BASE",
    "gamaka" : -1
  }, {
    "isTrailer" : false,
    "note" : "P",
    "duration" : "FULL",
    "octave" : "BASE",
    "gamaka" : -1
  }, {
    "isTrailer" : false,
    "note" : "D",
    "duration" : "FULL",
    "octave" : "BASE",
    "gamaka" : 15
  }, {
    "isTrailer" : false,
    "note" : "N",
    "duration" : "FULL",
    "octave" : "BASE",
    "gamaka" : -1
  }, {
    "isTrailer" : true
  }, {
    "isTrailer" : false,
    "note" : "S",
    "duration" : "DOUBLE",
    "octave" : "UP1",
    "gamaka" : -1
  }, {
    "isTrailer" : false,
    "note" : "S",
    "duration" : "DOUBLE",
    "octave" : "UP1",
    "gamaka" : -1
  }, {
    "isTrailer" : false,
    "note" : "N",
    "duration" : "FULL",
    "octave" : "BASE",
    "gamaka" : -1
  }, {
    "isTrailer" : false,
    "note" : "D",
    "duration" : "FULL",
    "octave" : "BASE",
    "gamaka" : 16
  }, {
    "isTrailer" : false,
    "note" : "P",
    "duration" : "DOUBLE",
    "octave" : "BASE",
    "gamaka" : 4
  }, {
    "isTrailer" : false,
    "note" : "M",
    "duration" : "FULL",
    "octave" : "BASE",
    "gamaka" : 17
  }, {
    "isTrailer" : false,
    "note" : "G",
    "duration" : "FULL",
    "octave" : "BASE",
    "gamaka" : -1
  }, {
    "isTrailer" : false,
    "note" : "R",
    "duration" : "FULL",
    "octave" : "BASE",
    "gamaka" : 20
  }, {
    "isTrailer" : false,
    "note" : "S",
    "duration" : "FULL",
    "octave" : "BASE",
    "gamaka" : 20
  }, {
    "isTrailer" : false,
    "note" : "S",
    "duration" : "FULL",
    "octave" : "BASE",
    "gamaka" : -1
  }, {
    "isTrailer" : false,
    "note" : "R",
    "duration" : "FULL",
    "octave" : "BASE",
    "gamaka" : 15
  }, {
    "isTrailer" : false,
    "note" : "G",
    "duration" : "FULL",
    "octave" : "BASE",
    "gamaka" : -1
  }, {
    "isTrailer" : false,
    "note" : "M",
    "duration" : "FULL",
    "octave" : "BASE",
    "gamaka" : 1
  }, {
    "isTrailer" : true
  }, {
    "isTrailer" : true
  }, {
    "isTrailer" : false,
    "note" : "P",
    "duration" : "DOUBLE",
    "octave" : "BASE",
    "gamaka" : -1
  }, {
    "isTrailer" : false,
    "note" : "D",
    "duration" : "FULL",
    "octave" : "BASE",
    "gamaka" : 15
  }, {
    "isTrailer" : false,
    "note" : "N",
    "duration" : "FULL",
    "octave" : "BASE",
    "gamaka" : -1
  }, {
    "isTrailer" : false,
    "note" : "S",
    "duration" : "FULL",
    "octave" : "UP1",
    "gamaka" : -1
  }, {
    "isTrailer" : false,
    "note" : "S",
    "duration" : "FULL",
    "octave" : "UP1",
    "gamaka" : -1
  }, {
    "isTrailer" : false,
    "note" : "N",
    "duration" : "FULL",
    "octave" : "BASE",
    "gamaka" : -1
  }, {
    "isTrailer" : false,
    "note" : "D",
    "duration" : "FULL",
    "octave" : "BASE",
    "gamaka" : 16
  }, {
    "isTrailer" : false,
    "note" : "P",
    "duration" : "FULL",
    "octave" : "BASE",
    "gamaka" : 20
  }, {
    "isTrailer" : false,
    "note" : "M",
    "duration" : "FULL",
    "octave" : "BASE",
    "gamaka" : 20
  }, {
    "isTrailer" : false,
    "note" : "G",
    "duration" : "FULL",
    "octave" : "BASE",
    "gamaka" : -1
  }, {
    "isTrailer" : false,
    "note" : "R",
    "duration" : "FULL",
    "octave" : "BASE",
    "gamaka" : 16
  }, {
    "isTrailer" : false,
    "note" : "G",
    "duration" : "DOUBLE",
    "octave" : "BASE",
    "gamaka" : -1
  }, {
    "isTrailer" : false,
    "note" : "M",
    "duration" : "DOUBLE",
    "octave" : "BASE",
    "gamaka" : 13
  }, {
    "isTrailer" : true
  }, {
    "isTrailer" : false,
    "note" : "P",
    "duration" : "DOUBLE",
    "octave" : "BASE",
    "gamaka" : -1
  }, {
    "isTrailer" : false,
    "note" : "M",
    "duration" : "FULL",
    "octave" : "BASE",
    "gamaka" : 12
  }, {
    "isTrailer" : false,
    "note" : "D",
    "duration" : "DOUBLE",
    "octave" : "BASE",
    "gamaka" : -1
  }, {
    "isTrailer" : false,
    "note" : "P",
    "duration" : "FULL",
    "octave" : "BASE",
    "gamaka" : 20
  }, {
    "isTrailer" : false,
    "note" : "S",
    "duration" : "FULL",
    "octave" : "UP1",
    "gamaka" : -1
  }, {
    "isTrailer" : false,
    "note" : "N",
    "duration" : "FULL",
    "octave" : "BASE",
    "gamaka" : -1
  }, {
    "isTrailer" : false,
    "note" : "D",
    "duration" : "FULL",
    "octave" : "BASE",
    "gamaka" : 16
  }, {
    "isTrailer" : false,
    "note" : "P",
    "duration" : "FULL",
    "octave" : "BASE",
    "gamaka" : 20
  }, {
    "isTrailer" : false,
    "note" : "M",
    "duration" : "FULL",
    "octave" : "BASE",
    "gamaka" : 17
  }, {
    "isTrailer" : false,
    "note" : "G",
    "duration" : "FULL",
    "octave" : "BASE",
    "gamaka" : -1
  }, {
    "isTrailer" : false,
    "note" : "M",
    "duration" : "FULL",
    "octave" : "BASE",
    "gamaka" : 17
  }, {
    "isTrailer" : false,
    "note" : "R",
    "duration" : "FULL",
    "octave" : "BASE",
    "gamaka" : -1
  }, {
    "isTrailer" : false,
    "note" : "G",
    "duration" : "FULL",
    "octave" : "BASE",
    "gamaka" : -1
  }, {
    "isTrailer" : false,
    "note" : "M",
    "duration" : "FULL",
    "octave" : "BASE",
    "gamaka" : 1
  }, {
    "isTrailer" : true
  }, {
    "isTrailer" : true
  }, {
    "isTrailer" : true
  } ]
}