{
  "v" : "1.0",
  "id" : 28,
  "name" : "Jalaja",
  "symbol" : "JL",
  "description" : "Starts with entered note, goes 2 swaras above and gets down to entered note.\n",
  "category" : "AAHATA",
  "scale" : "BASE",
  "pitchPoints" : [ {
    "tick" : 0,
    "noteBend" : 0.0
  }, {
    "tick" : 40,
    "noteBend" : 0.0
  }, {
    "tick" : 48,
    "noteBend" : 2.0
  }, {
    "tick" : 80,
    "noteBend" : 2.0
  }, {
    "tick" : 90,
    "noteBend" : 0.0
  }, {
    "tick" : 127,
    "noteBend" : 0.0
  } ]
}