{
  "v" : "1.0",
  "id" : 16,
  "name" : "Mithra",
  "symbol" : "MI",
  "description" : "Starts 1 swara above entered note,\ngoes down to entered note and ends \nwith 1 swara above entered note.\nEx: For karaharapriya g, the gamaka is \nmg.m\n(AMS Ref No: 420-26)",
  "category" : "AAHATA",
  "scale" : "ONE_UP",
  "pitchPoints" : [ {
    "tick" : 0,
    "noteBend" : 1.0
  }, {
    "tick" : 31,
    "noteBend" : 1.0
  }, {
    "tick" : 35,
    "noteBend" : 0.0
  }, {
    "tick" : 92,
    "noteBend" : 0.0
  }, {
    "tick" : 96,
    "noteBend" : 1.0
  }, {
    "tick" : 127,
    "noteBend" : 1.0
  } ]
}