{
  "v" : "1.0",
  "id" : 40,
  "name" : "Othkampitham",
  "symbol" : "OT",
  "description" : "Giving very slight variation at an entered note. ",
  "category" : "KAMPITHA",
  "scale" : "BASE",
  "pitchPoints" : [ {
    "tick" : 0,
    "noteBend" : 0.0
  }, {
    "tick" : 31,
    "noteBend" : -0.2
  }, {
    "tick" : 57,
    "noteBend" : 0.2
  }, {
    "tick" : 77,
    "noteBend" : -0.2
  }, {
    "tick" : 100,
    "noteBend" : 0.2
  }, {
    "tick" : 127,
    "noteBend" : -0.2
  } ]
}