{
  "v" : "1.0",
  "id" : 42,
  "name" : "Ravali",
  "symbol" : "RL",
  "description" : "Oscillation between entered note and 1 swara below entered note.\nEx: For Karaharapriya n the gamaka is ndnd.\nSimilar to Rohini except for the timings",
  "category" : "KAMPITHA",
  "scale" : "ONE_UP",
  "pitchPoints" : [ {
    "tick" : 0,
    "noteBend" : 1.0
  }, {
    "tick" : 25,
    "noteBend" : 1.0
  }, {
    "tick" : 40,
    "noteBend" : 0.0
  }, {
    "tick" : 55,
    "noteBend" : 0.0
  }, {
    "tick" : 70,
    "noteBend" : 1.0
  }, {
    "tick" : 95,
    "noteBend" : 1.0
  }, {
    "tick" : 110,
    "noteBend" : 0.0
  }, {
    "tick" : 127,
    "noteBend" : 0.0
  } ]
}