{
  "v" : "1.0",
  "id" : 6,
  "name" : "Rohini",
  "symbol" : "RH",
  "description" : "Oscillates between 1 swara above \nentered note and entered note. \nEx: For Sankarabharanam n, \nthe gamaka is SnSn.\n(AMS Ref No: 396-02) ",
  "category" : "KAMPITHA",
  "scale" : "ONE_UP",
  "pitchPoints" : [ {
    "tick" : 0,
    "noteBend" : 1.0
  }, {
    "tick" : 35,
    "noteBend" : 1.0
  }, {
    "tick" : 44,
    "noteBend" : 0.0
  }, {
    "tick" : 59,
    "noteBend" : 0.0
  }, {
    "tick" : 67,
    "noteBend" : 1.0
  }, {
    "tick" : 75,
    "noteBend" : 1.0
  }, {
    "tick" : 83,
    "noteBend" : 0.0
  }, {
    "tick" : 127,
    "noteBend" : 0.0
  } ]
}