{
  "v" : "1.0",
  "id" : 31,
  "name" : "Roopali",
  "symbol" : "RP",
  "description" : "Starts 1 swara above entered note\nand oscilates between 1 swara \nabove from the starting note and starting note.\nEx: For Sankarabharanam m, the \ngamaka is \np.dpd",
  "category" : "KAMPITHA",
  "scale" : "TWO_UP",
  "pitchPoints" : [ {
    "tick" : 0,
    "noteBend" : 1.0
  }, {
    "tick" : 60,
    "noteBend" : 1.0
  }, {
    "tick" : 64,
    "noteBend" : 2.0
  }, {
    "tick" : 79,
    "noteBend" : 2.0
  }, {
    "tick" : 84,
    "noteBend" : 1.0
  }, {
    "tick" : 101,
    "noteBend" : 1.0
  }, {
    "tick" : 107,
    "noteBend" : 2.0
  }, {
    "tick" : 127,
    "noteBend" : 2.0
  } ]
}