{
  "v" : "1.0",
  "id" : 10,
  "name" : "Varuni",
  "symbol" : "VN",
  "description" : "Starts with 3 swaras below the\n entered note and ends at the\n entered note. \nEx: For Harikambhoji d, \nthe gamaka is gd. ",
  "category" : "AGAMANAM",
  "scale" : "THREE_PLUS_DOWN",
  "pitchPoints" : [ {
    "tick" : 0,
    "noteBend" : -3.0
  }, {
    "tick" : 40,
    "noteBend" : -3.0
  }, {
    "tick" : 70,
    "noteBend" : 0.0
  }, {
    "tick" : 127,
    "noteBend" : 0.0
  } ]
}