{
  "v" : "1.0",
  "id" : 12,
  "name" : "Viswa",
  "symbol" : "VS",
  "description" : "Oscillates between 1 swara above \nthe entered note and 1 swara \nbelow the entered note.\nEx: For Sankarabharanam m, the \ngamaka is pgpg.\n(AMS Ref No: 424-30)\n",
  "category" : "KAMPITHA",
  "scale" : "BASE",
  "pitchPoints" : [ {
    "tick" : 0,
    "noteBend" : 1.0
  }, {
    "tick" : 56,
    "noteBend" : 1.0
  }, {
    "tick" : 66,
    "noteBend" : -1.0
  }, {
    "tick" : 74,
    "noteBend" : -1.0
  }, {
    "tick" : 86,
    "noteBend" : 1.0
  }, {
    "tick" : 94,
    "noteBend" : 1.0
  }, {
    "tick" : 106,
    "noteBend" : -1.0
  }, {
    "tick" : 127,
    "noteBend" : -1.0
  } ]
}